debug.vcd
$date
    Nov 22, 2025  16:03:47
$end
$version
    TOOL:	xmsim(64)	25.03-s006
$end
$timescale
    1 ps
$end

$scope module alu_testbench $end
$var reg       1 !    clk $end
$var reg       1 "    rst $end

$scope module intf $end
$var wire      1 #    clk  $end
$var wire      1 $    rst  $end
$var reg      32 %    A [31:0] $end
$var reg      32 &    B [31:0] $end
$var reg       3 '    Opcode [2:0] $end
$var reg      32 (    Result [31:0] $end
$var reg       1 )    Overflow $end
$var reg       1 *    Underflow $end
$var reg       1 +    Error $end

$scope clocking cb_drv $end
$var reg      32 ,    A [31:0] $end
$var reg      32 -    B [31:0] $end
$var reg       3 .    Opcode [2:0] $end
$upscope $end


$scope clocking cb_mon $end
$var reg      32 /    A [31:0] $end
$var reg      32 0    B [31:0] $end
$var reg       3 1    Opcode [2:0] $end
$var reg      32 2    Result [31:0] $end
$var reg       1 3    Overflow $end
$var reg       1 4    Underflow $end
$upscope $end

$upscope $end


$scope module dut $end
$var wire      1 5    clk  $end
$var wire      1 6    rst  $end
$var wire     32 7    A [31:0] $end
$var wire     32 8    B [31:0] $end
$var wire      3 9    Opcode [2:0] $end
$var reg      32 :    Result [31:0] $end
$var reg       1 ;    Error $end
$upscope $end

$upscope $end

$enddefinitions $end
$dumpvars
0!
0"
0#
0$
bx %
bx &
bx '
bx (
x)
x*
x+
bx ,
bx -
bx .
bx /
bx 0
bx 1
bx 2
x3
x4
05
06
bx 7
bx 8
bx 9
bx :
x;
$end
#1000
1"
16
1$
b0 :
0;
0+
b0 (
#2000
0"
06
0$
#5000
1!
15
1#
1;
1+
b0 2
#10000
0!
05
0#
b1110000111100001111110001111000 %
b1110000111100001111110001111000 ,
b11100010110001011011101111101000 &
b11100010110001011011101111101000 -
b100 '
b100 .
b100 9
b11100010110001011011101111101000 8
b1110000111100001111110001111000 7
#15000
1!
15
1#
b10010010001101010100011110010000 :
b10010010001101010100011110010000 (
b1110000111100001111110001111000 /
b11100010110001011011101111101000 0
b100 1
b10010010001101010100011110010000 2
#20000
0!
05
0#
bx %
bx ,
bx &
bx -
bx '
bx .
bx 9
bx 8
bx 7
#25000
1!
15
1#
b0 :
b0 (
bx /
bx 0
bx 1
b0 2
#30000
0!
05
0#
b1111001111001101101100100000000 %
b1111001111001101101100100000000 ,
b1010101111001010101100011010110 &
b1010101111001010101100011010110 -
b101 '
b101 .
b101 9
b1010101111001010101100011010110 8
b1111001111001101101100100000000 7
#35000
1!
15
1#
b1111001111001101101100100000000 /
b1010101111001010101100011010110 0
b101 1
#40000
0!
05
0#
bx %
bx ,
bx &
bx -
bx '
bx .
bx 9
bx 8
bx 7
#45000
1!
15
1#
bx /
bx 0
bx 1
#50000
0!
05
0#
b11100100001001001000011000111101 %
b11100100001001001000011000111101 ,
b10110011111100000100101010101010 &
b10110011111100000100101010101010 -
b101 '
b101 .
b101 9
b10110011111100000100101010101010 8
b11100100001001001000011000111101 7
#55000
1!
15
1#
b11100100001001001000011000111101 /
b10110011111100000100101010101010 0
b101 1
#60000
0!
05
0#
bx %
bx ,
bx &
bx -
bx '
bx .
bx 9
bx 8
bx 7
#65000
1!
15
1#
bx /
bx 0
bx 1
#70000
0!
05
0#
b10101111101010100000010000101111 %
b10101111101010100000010000101111 ,
b10110000010100010001001000111000 &
b10110000010100010001001000111000 -
b1 '
b1 .
b1 9
b10110000010100010001001000111000 8
b10101111101010100000010000101111 7
#75000
1!
15
1#
b11111111010110001111000111110111 :
0;
0+
b11111111010110001111000111110111 (
b10101111101010100000010000101111 /
b10110000010100010001001000111000 0
b1 1
b11111111010110001111000111110111 2
#80000
0!
05
0#
bx %
bx ,
bx &
bx -
bx '
bx .
bx 9
bx 8
bx 7
#85000
1!
15
1#
b0 :
1;
1+
b0 (
bx /
bx 0
bx 1
b0 2
#90000
0!
05
0#
b11011100011101110101001011010111 %
b11011100011101110101001011010111 ,
b11101111111011110010001011011010 &
b11101111111011110010001011011010 -
b110 '
b110 .
b110 9
b11101111111011110010001011011010 8
b11011100011101110101001011010111 7
#95000
1!
15
1#
b11011100011101110101001011010111 /
b11101111111011110010001011011010 0
b110 1
#100000
0!
05
0#
bx %
bx ,
bx &
bx -
bx '
bx .
bx 9
bx 8
bx 7
#105000
1!
15
1#
bx /
bx 0
bx 1
#110000
0!
05
0#
b1101010100011000111001000110100 %
b1101010100011000111001000110100 ,
b11001101111000110000100100110111 &
b11001101111000110000100100110111 -
b1 '
b1 .
b1 9
b11001101111000110000100100110111 8
b1101010100011000111001000110100 7
#115000
1!
15
1#
b10011100101010010110100011111101 :
0;
0+
b10011100101010010110100011111101 (
b1101010100011000111001000110100 /
b11001101111000110000100100110111 0
b1 1
b10011100101010010110100011111101 2
#120000
0!
05
0#
bx %
bx ,
bx &
bx -
bx '
bx .
bx 9
bx 8
bx 7
#125000
1!
15
1#
b0 :
1;
1+
b0 (
bx /
bx 0
bx 1
b0 2
#130000
0!
05
0#
b1011001111010010110001001000101 %
b1011001111010010110001001000101 ,
b111110011100000101000001001101 &
b111110011100000101000001001101 -
b0 '
b0 .
b0 9
b111110011100000101000001001101 8
b1011001111010010110001001000101 7
#135000
1!
15
1#
b10011000010110011011001010010010 :
0;
0+
b10011000010110011011001010010010 (
b1011001111010010110001001000101 /
b111110011100000101000001001101 0
b0 1
b10011000010110011011001010010010 2
#140000
0!
05
0#
bx %
bx ,
bx &
bx -
bx '
bx .
bx 9
bx 8
bx 7
#145000
1!
15
1#
b0 :
1;
1+
b0 (
bx /
bx 0
bx 1
b0 2
#150000
0!
05
0#
b10101010100011100010001100001101 %
b10101010100011100010001100001101 ,
b1001010100011001101010010100100 &
b1001010100011001101010010100100 -
b1 '
b1 .
b1 9
b1001010100011001101010010100100 8
b10101010100011100010001100001101 7
#155000
1!
15
1#
b1100000000000010100111001101001 :
0;
0+
b1100000000000010100111001101001 (
b10101010100011100010001100001101 /
b1001010100011001101010010100100 0
b1 1
b1100000000000010100111001101001 2
#160000
0!
05
0#
bx %
bx ,
bx &
bx -
bx '
bx .
bx 9
bx 8
bx 7
#165000
1!
15
1#
b0 :
1;
1+
b0 (
bx /
bx 0
bx 1
b0 2
#170000
0!
05
0#
b1011100011110101011010010001001 %
b1011100011110101011010010001001 ,
b10011100101011010011101010001000 &
b10011100101011010011101010001000 -
b101 '
b101 .
b101 9
b10011100101011010011101010001000 8
b1011100011110101011010010001001 7
#175000
1!
15
1#
b1011100011110101011010010001001 /
b10011100101011010011101010001000 0
b101 1
#180000
0!
05
0#
bx %
bx ,
bx &
bx -
bx '
bx .
bx 9
bx 8
bx 7
#185000
1!
15
1#
bx /
bx 0
bx 1
#190000
0!
05
0#
b1101111101011110001011010111010 %
b1101111101011110001011010111010 ,
b11011001101110001111010101010011 &
b11011001101110001111010101010011 -
b0 '
b0 .
b0 9
b11011001101110001111010101010011 8
b1101111101011110001011010111010 7
#195000
1!
15
1#
b1001001011010000000110000001101 :
0;
0+
b1001001011010000000110000001101 (
b1101111101011110001011010111010 /
b11011001101110001111010101010011 0
b0 1
b1001001011010000000110000001101 2
#200000
0!
05
0#
bx %
bx ,
bx &
bx -
bx '
bx .
bx 9
bx 8
bx 7
#205000
1!
15
1#
b0 :
1;
1+
b0 (
bx /
bx 0
bx 1
b0 2
#210000
0!
05
0#
b11100100001010110100100110100001 %
b11100100001010110100100110100001 ,
b1011010000000011111100100110011 &
b1011010000000011111100100110011 -
b100 '
b100 .
b100 9
b1011010000000011111100100110011 8
b11100100001010110100100110100001 7
#215000
1!
15
1#
b10111110001010101011000010010010 :
b10111110001010101011000010010010 (
b11100100001010110100100110100001 /
b1011010000000011111100100110011 0
b100 1
b10111110001010101011000010010010 2
#220000
0!
05
0#
bx %
bx ,
bx &
bx -
bx '
bx .
bx 9
bx 8
bx 7
#225000
1!
15
1#
b0 :
b0 (
bx /
bx 0
bx 1
b0 2
#230000
0!
05
0#
b10111001111011110100110100111101 %
b10111001111011110100110100111101 ,
b1111000101000001101001011001100 &
b1111000101000001101001011001100 -
b100 '
b100 .
b100 9
b1111000101000001101001011001100 8
b10111001111011110100110100111101 7
#235000
1!
15
1#
b11000001010011111001111111110001 :
b11000001010011111001111111110001 (
b10111001111011110100110100111101 /
b1111000101000001101001011001100 0
b100 1
b11000001010011111001111111110001 2
#240000
0!
05
0#
bx %
bx ,
bx &
bx -
bx '
bx .
bx 9
bx 8
bx 7
#245000
1!
15
1#
b0 :
b0 (
bx /
bx 0
bx 1
b0 2
#250000
0!
05
0#
b11110000111110110010000110001110 %
b11110000111110110010000110001110 ,
b10000010001010110000000101001100 &
b10000010001010110000000101001100 -
b11 '
b11 .
b11 9
b10000010001010110000000101001100 8
b11110000111110110010000110001110 7
#255000
1!
15
1#
b11110010111110110010000111001110 :
b11110010111110110010000111001110 (
b11110000111110110010000110001110 /
b10000010001010110000000101001100 0
b11 1
b11110010111110110010000111001110 2
#260000
0!
05
0#
bx %
bx ,
bx &
bx -
bx '
bx .
bx 9
bx 8
bx 7
#265000
1!
15
1#
b0 :
b0 (
bx /
bx 0
bx 1
b0 2
#270000
0!
05
0#
b10001001010011101100011010010100 %
b10001001010011101100011010010100 ,
b101010000010110000010110000110 &
b101010000010110000010110000110 -
b0 '
b0 .
b0 9
b101010000010110000010110000110 8
b10001001010011101100011010010100 7
#275000
1!
15
1#
b10110011010110011100110000011010 :
0;
0+
b10110011010110011100110000011010 (
b10001001010011101100011010010100 /
b101010000010110000010110000110 0
b0 1
b10110011010110011100110000011010 2
#280000
0!
05
0#
bx %
bx ,
bx &
bx -
bx '
bx .
bx 9
bx 8
bx 7
#285000
1!
15
1#
b0 :
1;
1+
b0 (
bx /
bx 0
bx 1
b0 2
#290000
0!
05
0#
b10000010111010100011110001010000 %
b10000010111010100011110001010000 ,
b10101001010000101001011010101 &
b10101001010000101001011010101 -
b100 '
b100 .
b100 9
b10101001010000101001011010101 8
b10000010111010100011110001010000 7
#295000
1!
15
1#
b10010111110000100110111010000101 :
b10010111110000100110111010000101 (
b10000010111010100011110001010000 /
b10101001010000101001011010101 0
b100 1
b10010111110000100110111010000101 2
#300000
0!
05
0#
bx %
bx ,
bx &
bx -
bx '
bx .
bx 9
bx 8
bx 7
#305000
1!
15
1#
b0 :
b0 (
bx /
bx 0
bx 1
b0 2
#310000
0!
05
0#
b11011101110011011000001011000000 %
b11011101110011011000001011000000 ,
b10010010110111110000000011011101 &
b10010010110111110000000011011101 -
b110 '
b110 .
b110 9
b10010010110111110000000011011101 8
b11011101110011011000001011000000 7
#315000
1!
15
1#
b11011101110011011000001011000000 /
b10010010110111110000000011011101 0
b110 1
#320000
0!
05
0#
bx %
bx ,
bx &
bx -
bx '
bx .
bx 9
bx 8
bx 7
#325000
1!
15
1#
bx /
bx 0
bx 1
#330000
0!
05
0#
b10011001111110001001100111100110 %
b10011001111110001001100111100110 ,
b111001111010111100011001100 &
b111001111010111100011001100 -
b110 '
b110 .
b110 9
b111001111010111100011001100 8
b10011001111110001001100111100110 7
#335000
1!
15
1#
b10011001111110001001100111100110 /
b111001111010111100011001100 0
b110 1
#340000
0!
05
0#
bx %
bx ,
bx &
bx -
bx '
bx .
bx 9
bx 8
bx 7
#345000
1!
15
1#
bx /
bx 0
bx 1
#350000
0!
05
0#
b10110111011010111000000111000001 %
b10110111011010111000000111000001 ,
b1100110100001110100010110100010 &
b1100110100001110100010110100010 -
b101 '
b101 .
b101 9
b1100110100001110100010110100010 8
b10110111011010111000000111000001 7
#355000
1!
15
1#
b10110111011010111000000111000001 /
b1100110100001110100010110100010 0
b101 1
#360000
0!
05
0#
bx %
bx ,
bx &
bx -
bx '
bx .
bx 9
bx 8
bx 7
#365000
1!
15
1#
bx /
bx 0
bx 1
#370000
0!
05
0#
b110110001001100011101001010001 %
b110110001001100011101001010001 ,
b1100100001001101110100000110010 &
b1100100001001101110100000110010 -
b1 '
b1 .
b1 9
b1100100001001101110100000110010 8
b110110001001100011101001010001 7
#375000
1!
15
1#
b11010001111111110101001000011111 :
0;
0+
b11010001111111110101001000011111 (
b110110001001100011101001010001 /
b1100100001001101110100000110010 0
b1 1
b11010001111111110101001000011111 2
#380000
0!
05
0#
bx %
bx ,
bx &
bx -
bx '
bx .
bx 9
bx 8
bx 7
#385000
1!
15
1#
b0 :
1;
1+
b0 (
bx /
bx 0
bx 1
b0 2
#390000
0!
05
0#
b10110001010001100001110010111 %
b10110001010001100001110010111 ,
b10100101000000111101001111010110 &
b10100101000000111101001111010110 -
b110 '
b110 .
b110 9
b10100101000000111101001111010110 8
b10110001010001100001110010111 7
#395000
1!
15
1#
b10110001010001100001110010111 /
b10100101000000111101001111010110 0
b110 1
#400000
0!
05
0#
bx %
bx ,
bx &
bx -
bx '
bx .
bx 9
bx 8
bx 7
#405000
1!
15
1#
bx /
bx 0
bx 1
#410000
0!
05
0#
b1010111011100110001110110010001 %
b1010111011100110001110110010001 ,
b1111000011110100010000000110100 &
b1111000011110100010000000110100 -
b110 '
b110 .
b110 9
b1111000011110100010000000110100 8
b1010111011100110001110110010001 7
#415000
1!
15
1#
b1010111011100110001110110010001 /
b1111000011110100010000000110100 0
b110 1
#420000
0!
05
0#
bx %
bx ,
bx &
bx -
bx '
bx .
bx 9
bx 8
bx 7
#425000
1!
15
1#
bx /
bx 0
bx 1
#430000
0!
05
0#
b11111010000001010100100001000001 %
b11111010000001010100100001000001 ,
b10001111001011011011010110100110 &
b10001111001011011011010110100110 -
b0 '
b0 .
b0 9
b10001111001011011011010110100110 8
b11111010000001010100100001000001 7
#435000
1!
15
1#
b10001001001100101111110111100111 :
0;
0+
b10001001001100101111110111100111 (
b11111010000001010100100001000001 /
b10001111001011011011010110100110 0
b0 1
b10001001001100101111110111100111 2
#440000
0!
05
0#
bx %
bx ,
bx &
bx -
bx '
bx .
bx 9
bx 8
bx 7
#445000
1!
15
1#
b0 :
1;
1+
b0 (
bx /
bx 0
bx 1
b0 2
#450000
0!
05
0#
b11111101110111110100001110100110 %
b11111101110111110100001110100110 ,
b1000100001101110010000011010011 &
b1000100001101110010000011010011 -
b110 '
b110 .
b110 9
b1000100001101110010000011010011 8
b11111101110111110100001110100110 7
#455000
1!
15
1#
b11111101110111110100001110100110 /
b1000100001101110010000011010011 0
b110 1
#460000
0!
05
0#
bx %
bx ,
bx &
bx -
bx '
bx .
bx 9
bx 8
bx 7
#465000
1!
15
1#
bx /
bx 0
bx 1
#470000
0!
05
0#
b1100011000000010000111111000000 %
b1100011000000010000111111000000 ,
b10010111100101100110000110111001 &
b10010111100101100110000110111001 -
b10 '
b10 .
b10 9
b10010111100101100110000110111001 8
b1100011000000010000111111000000 7
#475000
1!
15
1#
b11000000000000000110000000 :
b11000000000000000110000000 (
b1100011000000010000111111000000 /
b10010111100101100110000110111001 0
b10 1
b11000000000000000110000000 2
#480000
0!
05
0#
bx %
bx ,
bx &
bx -
bx '
bx .
bx 9
bx 8
bx 7
#485000
1!
15
1#
b0 :
b0 (
bx /
bx 0
bx 1
b0 2
#490000
0!
05
0#
b101001011010101010110010010000 %
b101001011010101010110010010000 ,
b101110001100101110101110110011 &
b101110001100101110101110110011 -
b111 '
b111 .
b111 9
b101110001100101110101110110011 8
b101001011010101010110010010000 7
#495000
1!
15
1#
b101001011010101010110010010000 /
b101110001100101110101110110011 0
b111 1
#500000
0!
05
0#
bx %
bx ,
bx &
bx -
bx '
bx .
bx 9
bx 8
bx 7
#505000
1!
15
1#
bx /
bx 0
bx 1
#510000
0!
05
0#
b1010001000111000001101000010101 %
b1010001000111000001101000010101 ,
b10101111101110101100101010010100 &
b10101111101110101100101010010100 -
b1 '
b1 .
b1 9
b10101111101110101100101010010100 8
b1010001000111000001101000010101 7
#515000
1!
15
1#
b10100001011000010100111110000001 :
0;
0+
b10100001011000010100111110000001 (
b1010001000111000001101000010101 /
b10101111101110101100101010010100 0
b1 1
b10100001011000010100111110000001 2
#520000
0!
05
0#
bx %
bx ,
bx &
bx -
bx '
bx .
bx 9
bx 8
bx 7
#525000
1!
15
1#
b0 :
1;
1+
b0 (
bx /
bx 0
bx 1
b0 2
#530000
0!
05
0#
b11011010000101010101100001001110 %
b11011010000101010101100001001110 ,
b11000011110111000000101000101111 &
b11000011110111000000101000101111 -
b1 '
b1 .
b1 9
b11000011110111000000101000101111 8
b11011010000101010101100001001110 7
#535000
1!
15
1#
b10110001110010100111000011111 :
0;
0+
b10110001110010100111000011111 (
b11011010000101010101100001001110 /
b11000011110111000000101000101111 0
b1 1
b10110001110010100111000011111 2
#540000
0!
05
0#
bx %
bx ,
bx &
bx -
bx '
bx .
bx 9
bx 8
bx 7
#545000
1!
15
1#
b0 :
1;
1+
b0 (
bx /
bx 0
bx 1
b0 2
#550000
0!
05
0#
b11000100010101100110011100111101 %
b11000100010101100110011100111101 ,
b11001110101001010001001110110001 &
b11001110101001010001001110110001 -
b111 '
b111 .
b111 9
b11001110101001010001001110110001 8
b11000100010101100110011100111101 7
#555000
1!
15
1#
b11000100010101100110011100111101 /
b11001110101001010001001110110001 0
b111 1
#560000
0!
05
0#
bx %
bx ,
bx &
bx -
bx '
bx .
bx 9
bx 8
bx 7
#565000
1!
15
1#
bx /
bx 0
bx 1
#570000
0!
05
0#
b1111110111110100011011100010 %
b1111110111110100011011100010 ,
b11010000000101011110011100011010 &
b11010000000101011110011100011010 -
b101 '
b101 .
b101 9
b11010000000101011110011100011010 8
b1111110111110100011011100010 7
#575000
1!
15
1#
b1111110111110100011011100010 /
b11010000000101011110011100011010 0
b101 1
#580000
0!
05
0#
bx %
bx ,
bx &
bx -
bx '
bx .
bx 9
bx 8
bx 7
#585000
1!
15
1#
bx /
bx 0
bx 1
#590000
0!
05
0#
b10111100101011111111011100111011 %
b10111100101011111111011100111011 ,
b10110000101101011001101001101010 &
b10110000101101011001101001101010 -
b0 '
b0 .
b0 9
b10110000101101011001101001101010 8
b10111100101011111111011100111011 7
#595000
1!
15
1#
b1101101011001011001000110100101 :
0;
0+
b1101101011001011001000110100101 (
b10111100101011111111011100111011 /
b10110000101101011001101001101010 0
b0 1
b1101101011001011001000110100101 2
#600000
0!
05
0#
bx %
bx ,
bx &
bx -
bx '
bx .
bx 9
bx 8
bx 7
#605000
1!
15
1#
b0 :
1;
1+
b0 (
bx /
bx 0
bx 1
b0 2
#610000
0!
05
0#
b11001010110010000111100001001010 %
b11001010110010000111100001001010 ,
b10000111111111010001011110100010 &
b10000111111111010001011110100010 -
b11 '
b11 .
b11 9
b10000111111111010001011110100010 8
b11001010110010000111100001001010 7
#615000
1!
15
1#
b11001111111111010111111111101010 :
b11001111111111010111111111101010 (
b11001010110010000111100001001010 /
b10000111111111010001011110100010 0
b11 1
b11001111111111010111111111101010 2
#620000
0!
05
0#
bx %
bx ,
bx &
bx -
bx '
bx .
bx 9
bx 8
bx 7
#625000
1!
15
1#
b0 :
b0 (
bx /
bx 0
bx 1
b0 2
#630000
0!
05
0#
b111010001010001100101000001101 %
b111010001010001100101000001101 ,
b10100101010010000111011001100101 &
b10100101010010000111011001100101 -
b0 '
b0 .
b0 9
b10100101010010000111011001100101 8
b111010001010001100101000001101 7
#635000
1!
15
1#
b11011111011100010100000001110010 :
0;
0+
b11011111011100010100000001110010 (
b111010001010001100101000001101 /
b10100101010010000111011001100101 0
b0 1
b11011111011100010100000001110010 2
#640000
0!
05
0#
bx %
bx ,
bx &
bx -
bx '
bx .
bx 9
bx 8
bx 7
#645000
1!
15
1#
b0 :
1;
1+
b0 (
bx /
bx 0
bx 1
b0 2
#650000
0!
05
0#
b1010110100001110110010000110 %
b1010110100001110110010000110 ,
b101110100010001111000111101 &
b101110100010001111000111101 -
b111 '
b111 .
b111 9
b101110100010001111000111101 8
b1010110100001110110010000110 7
#655000
1!
15
1#
b1010110100001110110010000110 /
b101110100010001111000111101 0
b111 1
#660000
0!
05
0#
bx %
bx ,
bx &
bx -
bx '
bx .
bx 9
bx 8
bx 7
#665000
1!
15
1#
bx /
bx 0
bx 1
#670000
0!
05
0#
b111100110000001101111110110101 %
b111100110000001101111110110101 ,
b10101001100101110000111100101010 &
b10101001100101110000111100101010 -
b101 '
b101 .
b101 9
b10101001100101110000111100101010 8
b111100110000001101111110110101 7
#675000
1!
15
1#
b111100110000001101111110110101 /
b10101001100101110000111100101010 0
b101 1
#680000
0!
05
0#
bx %
bx ,
bx &
bx -
bx '
bx .
bx 9
bx 8
bx 7
#685000
1!
15
1#
bx /
bx 0
bx 1
#690000
0!
05
0#
b11001111111110001010001110011000 %
b11001111111110001010001110011000 ,
b11011111111101100110000011010000 &
b11011111111101100110000011010000 -
b0 '
b0 .
b0 9
b11011111111101100110000011010000 8
b11001111111110001010001110011000 7
#695000
1!
15
1#
b10101111111011110000010001101000 :
0;
0+
b10101111111011110000010001101000 (
b11001111111110001010001110011000 /
b11011111111101100110000011010000 0
b0 1
b10101111111011110000010001101000 2
#700000
0!
05
0#
bx %
bx ,
bx &
bx -
bx '
bx .
bx 9
bx 8
bx 7
#705000
1!
15
1#
b0 :
1;
1+
b0 (
bx /
bx 0
bx 1
b0 2
#710000
0!
05
0#
b11000100011110000011100000110001 %
b11000100011110000011100000110001 ,
b1100111111010111110001011101 &
b1100111111010111110001011101 -
b11 '
b11 .
b11 9
b1100111111010111110001011101 8
b11000100011110000011100000110001 7
#715000
1!
15
1#
b11001100111111010111110001111101 :
b11001100111111010111110001111101 (
b11000100011110000011100000110001 /
b1100111111010111110001011101 0
b11 1
b11001100111111010111110001111101 2
#720000
0!
05
0#
bx %
bx ,
bx &
bx -
bx '
bx .
bx 9
bx 8
bx 7
#725000
1!
15
1#
b0 :
b0 (
bx /
bx 0
bx 1
b0 2
#730000
0!
05
0#
b11010001111111001110101111110 %
b11010001111111001110101111110 ,
b10000000000010000111100101110111 &
b10000000000010000111100101110111 -
b0 '
b0 .
b0 9
b10000000000010000111100101110111 8
b11010001111111001110101111110 7
#735000
1!
15
1#
b10011010010010000001011011110101 :
0;
0+
b10011010010010000001011011110101 (
b11010001111111001110101111110 /
b10000000000010000111100101110111 0
b0 1
b10011010010010000001011011110101 2
#740000
0!
05
0#
bx %
bx ,
bx &
bx -
bx '
bx .
bx 9
bx 8
bx 7
#745000
1!
15
1#
b0 :
1;
1+
b0 (
bx /
bx 0
bx 1
b0 2
#750000
0!
05
0#
b11010001010011101101001110000001 %
b11010001010011101101001110000001 ,
b10000010111001100011111011010010 &
b10000010111001100011111011010010 -
b111 '
b111 .
b111 9
b10000010111001100011111011010010 8
b11010001010011101101001110000001 7
#755000
1!
15
1#
b11010001010011101101001110000001 /
b10000010111001100011111011010010 0
b111 1
#760000
0!
05
0#
bx %
bx ,
bx &
bx -
bx '
bx .
bx 9
bx 8
bx 7
#765000
1!
15
1#
bx /
bx 0
bx 1
#770000
0!
05
0#
b11101001101001011101101000111001 %
b11101001101001011101101000111001 ,
b100100000110011101100111100111 &
b100100000110011101100111100111 -
b100 '
b100 .
b100 9
b100100000110011101100111100111 8
b11101001101001011101101000111001 7
#775000
1!
15
1#
b11001101101111000000001111011110 :
b11001101101111000000001111011110 (
b11101001101001011101101000111001 /
b100100000110011101100111100111 0
b100 1
b11001101101111000000001111011110 2
#780000
0!
05
0#
bx %
bx ,
bx &
bx -
bx '
bx .
bx 9
bx 8
bx 7
#785000
1!
15
1#
b0 :
b0 (
bx /
bx 0
bx 1
b0 2
#790000
0!
05
0#
b1100011010001001011000110100111 %
b1100011010001001011000110100111 ,
b10111011111101010011111011100011 &
b10111011111101010011111011100011 -
b0 '
b0 .
b0 9
b10111011111101010011111011100011 8
b1100011010001001011000110100111 7
#795000
1!
15
1#
b11111001110011111000010001010 :
0;
0+
b11111001110011111000010001010 (
b1100011010001001011000110100111 /
b10111011111101010011111011100011 0
b0 1
b11111001110011111000010001010 2
#800000
0!
05
0#
bx %
bx ,
bx &
bx -
bx '
bx .
bx 9
bx 8
bx 7
#805000
1!
15
1#
b0 :
1;
1+
b0 (
bx /
bx 0
bx 1
b0 2
#810000
0!
05
0#
b111110001010110101100111001001 %
b111110001010110101100111001001 ,
b11100110011010100000010010011001 &
b11100110011010100000010010011001 -
b0 '
b0 .
b0 9
b11100110011010100000010010011001 8
b111110001010110101100111001001 7
#815000
1!
15
1#
b100100100101010101111001100010 :
0;
0+
b100100100101010101111001100010 (
b111110001010110101100111001001 /
b11100110011010100000010010011001 0
b0 1
b100100100101010101111001100010 2
#820000
0!
05
0#
bx %
bx ,
bx &
bx -
bx '
bx .
bx 9
bx 8
bx 7
#825000
1!
15
1#
b0 :
1;
1+
b0 (
bx /
bx 0
bx 1
b0 2
#830000
0!
05
0#
b1111010010110011101001010100001 %
b1111010010110011101001010100001 ,
b1010100000111000001001101100011 &
b1010100000111000001001101100011 -
b0 '
b0 .
b0 9
b1010100000111000001001101100011 8
b1111010010110011101001010100001 7
#835000
1!
15
1#
b11001110011101011110011000000100 :
0;
0+
b11001110011101011110011000000100 (
b1111010010110011101001010100001 /
b1010100000111000001001101100011 0
b0 1
b11001110011101011110011000000100 2
#840000
0!
05
0#
bx %
bx ,
bx &
bx -
bx '
bx .
bx 9
bx 8
bx 7
#845000
1!
15
1#
b0 :
1;
1+
b0 (
bx /
bx 0
bx 1
b0 2
#850000
0!
05
0#
b10111110100000001110000101110 %
b10111110100000001110000101110 ,
b1100000001000111111011111100111 &
b1100000001000111111011111100111 -
b110 '
b110 .
b110 9
b1100000001000111111011111100111 8
b10111110100000001110000101110 7
#855000
1!
15
1#
b10111110100000001110000101110 /
b1100000001000111111011111100111 0
b110 1
#860000
0!
05
0#
bx %
bx ,
bx &
bx -
bx '
bx .
bx 9
bx 8
bx 7
#865000
1!
15
1#
bx /
bx 0
bx 1
#870000
0!
05
0#
b10110100011100011011001110000 %
b10110100011100011011001110000 ,
b1010111000101110011000101010010 &
b1010111000101110011000101010010 -
b10 '
b10 .
b10 9
b1010111000101110011000101010010 8
b10110100011100011011001110000 7
#875000
1!
15
1#
b10110000001100011000001010000 :
b10110000001100011000001010000 (
b10110100011100011011001110000 /
b1010111000101110011000101010010 0
b10 1
b10110000001100011000001010000 2
#880000
0!
05
0#
bx %
bx ,
bx &
bx -
bx '
bx .
bx 9
bx 8
bx 7
#885000
1!
15
1#
b0 :
b0 (
bx /
bx 0
bx 1
b0 2
#890000
0!
05
0#
b1110110100101000010000101101000 %
b1110110100101000010000101101000 ,
b10010001010001111011001111010001 &
b10010001010001111011001111010001 -
b111 '
b111 .
b111 9
b10010001010001111011001111010001 8
b1110110100101000010000101101000 7
#895000
1!
15
1#
b1110110100101000010000101101000 /
b10010001010001111011001111010001 0
b111 1
#900000
0!
05
0#
bx %
bx ,
bx &
bx -
bx '
bx .
bx 9
bx 8
bx 7
#905000
1!
15
1#
bx /
bx 0
bx 1
#910000
0!
05
0#
b110111111000011101110100010100 %
b110111111000011101110100010100 ,
b10001011111000001011111011101 &
b10001011111000001011111011101 -
b111 '
b111 .
b111 9
b10001011111000001011111011101 8
b110111111000011101110100010100 7
#915000
1!
15
1#
b110111111000011101110100010100 /
b10001011111000001011111011101 0
b111 1
#920000
0!
05
0#
bx %
bx ,
bx &
bx -
bx '
bx .
bx 9
bx 8
bx 7
#925000
1!
15
1#
bx /
bx 0
bx 1
#930000
0!
05
0#
b1011010011101110110100101110110 %
b1011010011101110110100101110110 ,
b11010100111011011100010011111101 &
b11010100111011011100010011111101 -
b111 '
b111 .
b111 9
b11010100111011011100010011111101 8
b1011010011101110110100101110110 7
#935000
1!
15
1#
b1011010011101110110100101110110 /
b11010100111011011100010011111101 0
b111 1
#940000
0!
05
0#
bx %
bx ,
bx &
bx -
bx '
bx .
bx 9
bx 8
bx 7
#945000
1!
15
1#
bx /
bx 0
bx 1
#950000
0!
05
0#
b11011110010101001100011010001101 %
b11011110010101001100011010001101 ,
b10000011010010101100011100000100 &
b10000011010010101100011100000100 -
b110 '
b110 .
b110 9
b10000011010010101100011100000100 8
b11011110010101001100011010001101 7
#955000
1!
15
1#
b11011110010101001100011010001101 /
b10000011010010101100011100000100 0
b110 1
#960000
0!
05
0#
bx %
bx ,
bx &
bx -
bx '
bx .
bx 9
bx 8
bx 7
#965000
1!
15
1#
bx /
bx 0
bx 1
#970000
0!
05
0#
b11000011011110011111010001011001 %
b11000011011110011111010001011001 ,
b11001111111111011001111011000101 &
b11001111111111011001111011000101 -
b10 '
b10 .
b10 9
b11001111111111011001111011000101 8
b11000011011110011111010001011001 7
#975000
1!
15
1#
b11000011011110011001010001000001 :
b11000011011110011001010001000001 (
b11000011011110011111010001011001 /
b11001111111111011001111011000101 0
b10 1
b11000011011110011001010001000001 2
#980000
0!
05
0#
bx %
bx ,
bx &
bx -
bx '
bx .
bx 9
bx 8
bx 7
#985000
1!
15
1#
b0 :
b0 (
bx /
bx 0
bx 1
b0 2
#990000
0!
05
0#
b1001111001101111001011011010 %
b1001111001101111001011011010 ,
b10111011000001100100110001000000 &
b10111011000001100100110001000000 -
b100 '
b100 .
b100 9
b10111011000001100100110001000000 8
b1001111001101111001011011010 7
#995000
1!
15
1#
b10110010111000001011111010011010 :
b10110010111000001011111010011010 (
b1001111001101111001011011010 /
b10111011000001100100110001000000 0
b100 1
b10110010111000001011111010011010 2
#1000000
0!
05
0#
bx %
bx ,
bx &
bx -
bx '
bx .
bx 9
bx 8
bx 7
#1005000
1!
15
1#
b0 :
b0 (
bx /
bx 0
bx 1
b0 2
#1010000
0!
05
0#
b10110001100110111100001000010001 %
b10110001100110111100001000010001 ,
b110101111000011100000111111100 &
b110101111000011100000111111100 -
b110 '
b110 .
b110 9
b110101111000011100000111111100 8
b10110001100110111100001000010001 7
#1015000
1!
15
1#
b10110001100110111100001000010001 /
b110101111000011100000111111100 0
b110 1
