dump.vcd
$date
    Jan  8, 2026  13:50:51
$end
$version
    TOOL:	xmsim(64)	25.03-s006
$end
$timescale
    1 ns
$end

$scope module top $end

$scope module alu_if $end
$var wire      1 !    clk  $end
$var wire      1 "    rst  $end
$var reg      32 #    A [31:0] $end
$var reg      32 $    B [31:0] $end
$var reg       3 %    Opcode [2:0] $end
$var reg      32 &    Result [31:0] $end
$var reg       1 '    Error $end

$scope clocking cb_drv $end
$var reg      32 (    A [31:0] $end
$var reg      32 )    B [31:0] $end
$var reg       3 *    Opcode [2:0] $end
$upscope $end


$scope clocking cb_mon $end
$var reg      32 +    A [31:0] $end
$var reg      32 ,    B [31:0] $end
$var reg       3 -    Opcode [2:0] $end
$var reg      32 .    Result [31:0] $end
$var reg       1 /    Error $end
$upscope $end

$upscope $end

$upscope $end

$enddefinitions $end
$dumpvars
0!
1"
bx #
bx $
bx %
b0 &
0'
bx (
bx )
bx *
bx +
bx ,
bx -
bx .
x/
$end
#5
1!
b0 .
0/
#10
0!
b10010000101000110000011101000100 #
b10010000101000110000011101000100 (
b10111011011000110110111101011000 $
b10111011011000110110111101011000 )
b11 %
b11 *
#15
1!
b10010000101000110000011101000100 +
b10111011011000110110111101011000 ,
b11 -
#20
0!
0"
bx #
bx (
bx $
bx )
bx %
bx *
#25
1!
1'
bx +
bx ,
bx -
1/
#30
0!
b1001010001111001100110000100111 #
b1001010001111001100110000100111 (
b101001110101101111000100111001 $
b101001110101101111000100111001 )
b0 %
b0 *
#35
1!
0'
b1110100000100111011110101100000 &
b1001010001111001100110000100111 +
b101001110101101111000100111001 ,
b0 -
b1110100000100111011110101100000 .
0/
#40
0!
bx #
bx (
bx $
bx )
bx %
bx *
#45
1!
1'
b0 &
bx +
bx ,
bx -
b0 .
1/
#50
0!
b1100101000111100110000110111110 #
b1100101000111100110000110111110 (
b101010111000111101001111010100 $
b101010111000111101001111010100 )
b1 %
b1 *
#55
1!
0'
b111010001110101000110111101010 &
b1100101000111100110000110111110 +
b101010111000111101001111010100 ,
b1 -
b111010001110101000110111101010 .
0/
#60
0!
bx #
bx (
bx $
bx )
bx %
bx *
#65
1!
1'
b0 &
bx +
bx ,
bx -
b0 .
1/
#70
0!
b11100001010001111100100000001011 #
b11100001010001111100100000001011 (
b1101111001011011111111110000010 $
b1101111001011011111111110000010 )
b10 %
b10 *
#75
1!
0'
b1100001000001011100100000000010 &
b11100001010001111100100000001011 +
b1101111001011011111111110000010 ,
b10 -
b1100001000001011100100000000010 .
0/
#80
0!
bx #
bx (
bx $
bx )
bx %
bx *
#85
1!
1'
b0 &
bx +
bx ,
bx -
b0 .
1/
#90
0!
b10111110101110001111111100001101 #
b10111110101110001111111100001101 (
b1010001110011100000000011101011 $
b1010001110011100000000011101011 )
b1 %
b1 *
#95
1!
0'
b1101100111010101111111000100010 &
b10111110101110001111111100001101 +
b1010001110011100000000011101011 ,
b1 -
b1101100111010101111111000100010 .
0/
#100
0!
bx #
bx (
bx $
bx )
bx %
bx *
#105
1!
1'
b0 &
bx +
bx ,
bx -
b0 .
1/
#110
0!
b11111101011100100000011011000101 #
b11111101011100100000011011000101 (
b1110111101010110100101101101000 $
b1110111101010110100101101101000 )
b0 %
b0 *
#115
1!
0'
b1110101000111010101001000101101 &
b11111101011100100000011011000101 +
b1110111101010110100101101101000 ,
b0 -
b1110101000111010101001000101101 .
0/
#120
0!
bx #
bx (
bx $
bx )
bx %
bx *
#125
1!
1'
b0 &
bx +
bx ,
bx -
b0 .
1/
#130
0!
b10011101011100101101111100110001 #
b10011101011100101101111100110001 (
b11100011100011000111011101110010 $
b11100011100011000111011101110010 )
b11 %
b11 *
#135
1!
0'
b11111111111111101111111101110011 &
b10011101011100101101111100110001 +
b11100011100011000111011101110010 ,
b11 -
b11111111111111101111111101110011 .
0/
#140
0!
bx #
bx (
bx $
bx )
bx %
bx *
#145
1!
1'
b0 &
bx +
bx ,
bx -
b0 .
1/
#150
0!
b10011110101110111000100001010011 #
b10011110101110111000100001010011 (
b10010010101010101110110010001111 $
b10010010101010101110110010001111 )
b110 %
b110 *
#155
1!
b10011110101110111000100001010011 +
b10010010101010101110110010001111 ,
b110 -
#160
0!
bx #
bx (
bx $
bx )
bx %
bx *
#165
1!
bx +
bx ,
bx -
#170
0!
b1010011000000001000101010 #
b1010011000000001000101010 (
b11100000000111110011011101100111 $
b11100000000111110011011101100111 )
b110 %
b110 *
#175
1!
b1010011000000001000101010 +
b11100000000111110011011101100111 ,
b110 -
#180
0!
bx #
bx (
bx $
bx )
bx %
bx *
#185
1!
bx +
bx ,
bx -
#190
0!
b11000101001001000100110010110110 #
b11000101001001000100110010110110 (
b1100101000101000101011001010011 $
b1100101000101000101011001010011 )
b110 %
b110 *
#195
1!
b11000101001001000100110010110110 +
b1100101000101000101011001010011 ,
b110 -
#200
0!
bx #
bx (
bx $
bx )
bx %
bx *
#205
1!
bx +
bx ,
bx -
#210
0!
b11101010010001000110011111110111 #
b11101010010001000110011111110111 (
b10001000010111110100101011111000 $
b10001000010111110100101011111000 )
b11 %
b11 *
#215
1!
0'
b11101010010111110110111111111111 &
b11101010010001000110011111110111 +
b10001000010111110100101011111000 ,
b11 -
b11101010010111110110111111111111 .
0/
#220
0!
bx #
bx (
bx $
bx )
bx %
bx *
#225
1!
1'
b0 &
bx +
bx ,
bx -
b0 .
1/
#230
0!
b1110000101011000101001111101101 #
b1110000101011000101001111101101 (
b1001010000000000001010101011000 $
b1001010000000000001010101011000 )
b101 %
b101 *
#235
1!
b1110000101011000101001111101101 +
b1001010000000000001010101011000 ,
b101 -
#240
0!
bx #
bx (
bx $
bx )
bx %
bx *
#245
1!
bx +
bx ,
bx -
#250
0!
b1011000010111000001000010011001 #
b1011000010111000001000010011001 (
b1001110110111100010100011001100 $
b1001110110111100010100011001100 )
b0 %
b0 *
#255
1!
b10100111001110100011100101100101 &
b1011000010111000001000010011001 +
b1001110110111100010100011001100 ,
b0 -
b10100111001110100011100101100101 .
#260
0!
bx #
bx (
bx $
bx )
bx %
bx *
#265
1!
b0 &
bx +
bx ,
bx -
b0 .
#270
0!
b10100001010100111001110111111010 #
b10100001010100111001110111111010 (
b111110101001111001000100100110 $
b111110101001111001000100100110 )
b1 %
b1 *
#275
1!
0'
b1100010101011000000110011010100 &
b10100001010100111001110111111010 +
b111110101001111001000100100110 ,
b1 -
b1100010101011000000110011010100 .
0/
#280
0!
bx #
bx (
bx $
bx )
bx %
bx *
#285
1!
1'
b0 &
bx +
bx ,
bx -
b0 .
1/
#290
0!
b1001011100100101111110000010000 #
b1001011100100101111110000010000 (
b11001100110001101100111100111011 $
b11001100110001101100111100111011 )
b111 %
b111 *
#295
1!
b1001011100100101111110000010000 +
b11001100110001101100111100111011 ,
b111 -
#300
0!
bx #
bx (
bx $
bx )
bx %
bx *
#305
1!
bx +
bx ,
bx -
#310
0!
b1010111000110100010101011011011 #
b1010111000110100010101011011011 (
b1000101110100010110001000110111 $
b1000101110100010110001000110111 )
b100 %
b100 *
#315
1!
0'
b10010110010110100100011101100 &
b1010111000110100010101011011011 +
b1000101110100010110001000110111 ,
b100 -
b10010110010110100100011101100 .
0/
#320
0!
bx #
bx (
bx $
bx )
bx %
bx *
#325
1!
1'
b0 &
bx +
bx ,
bx -
b0 .
1/
#330
0!
b11000011111010010010101001011100 #
b11000011111010010010101001011100 (
b10000110010011111001000111 $
b10000110010011111001000111 )
b1 %
b1 *
#335
1!
0'
b11000001110011111110110000010101 &
b11000011111010010010101001011100 +
b10000110010011111001000111 ,
b1 -
b11000001110011111110110000010101 .
0/
#340
0!
bx #
bx (
bx $
bx )
bx %
bx *
#345
1!
1'
b0 &
bx +
bx ,
bx -
b0 .
1/
#350
0!
b10010001111111111111101010010001 #
b10010001111111111111101010010001 (
b100011001001111101111100011 $
b100011001001111101111100011 )
b1 %
b1 *
#355
1!
0'
b10001101100110101111111010101110 &
b10010001111111111111101010010001 +
b100011001001111101111100011 ,
b1 -
b10001101100110101111111010101110 .
0/
#360
0!
bx #
bx (
bx $
bx )
bx %
bx *
#365
1!
1'
b0 &
bx +
bx ,
bx -
b0 .
1/
#370
0!
b11000001010111101001101101111100 #
b11000001010111101001101101111100 (
b1001001111011100000001010010100 $
b1001001111011100000001010010100 )
b10 %
b10 *
#375
1!
0'
b1000001010011100000001000010100 &
b11000001010111101001101101111100 +
b1001001111011100000001010010100 ,
b10 -
b1000001010011100000001000010100 .
0/
#380
0!
bx #
bx (
bx $
bx )
bx %
bx *
#385
1!
1'
b0 &
bx +
bx ,
bx -
b0 .
1/
#390
0!
b1010010000001010000110100011100 #
b1010010000001010000110100011100 (
b101101110011001101111011111110 $
b101101110011001101111011111110 )
b1 %
b1 *
#395
1!
0'
b100100001110000010111000011110 &
b1010010000001010000110100011100 +
b101101110011001101111011111110 ,
b1 -
b100100001110000010111000011110 .
0/
#400
0!
bx #
bx (
bx $
bx )
bx %
bx *
#405
1!
1'
b0 &
bx +
bx ,
bx -
b0 .
1/
#410
0!
b1000011111100110100111101110001 #
b1000011111100110100111101110001 (
b11111100100101110001000001010000 $
b11111100100101110001000001010000 )
b101 %
b101 *
#415
1!
b1000011111100110100111101110001 +
b11111100100101110001000001010000 ,
b101 -
#420
0!
bx #
bx (
bx $
bx )
bx %
bx *
#425
1!
bx +
bx ,
bx -
#430
0!
b10010111001010010110001001111100 #
b10010111001010010110001001111100 (
b1110100111101000101010110110 $
b1110100111101000101010110110 )
b10 %
b10 *
#435
1!
0'
b110000010000000001000110100 &
b10010111001010010110001001111100 +
b1110100111101000101010110110 ,
b10 -
b110000010000000001000110100 .
0/
#440
0!
bx #
bx (
bx $
bx )
bx %
bx *
#445
1!
1'
b0 &
bx +
bx ,
bx -
b0 .
1/
#450
0!
b1001011101001110100011000111100 #
b1001011101001110100011000111100 (
b10111110111110111101101011010101 $
b10111110111110111101101011010101 )
b100 %
b100 *
#455
1!
0'
b11110101010111001001110011101001 &
b1001011101001110100011000111100 +
b10111110111110111101101011010101 ,
b100 -
b11110101010111001001110011101001 .
0/
#460
0!
bx #
bx (
bx $
bx )
bx %
bx *
#465
1!
1'
b0 &
bx +
bx ,
bx -
b0 .
1/
#470
0!
b1100001011011001111101010110000 #
b1100001011011001111101010110000 (
b1111100101000101110101111 $
b1111100101000101110101111 )
b11 %
b11 *
#475
1!
0'
b1100001111111101111101110111111 &
b1100001011011001111101010110000 +
b1111100101000101110101111 ,
b11 -
b1100001111111101111101110111111 .
0/
#480
0!
bx #
bx (
bx $
bx )
bx %
bx *
#485
1!
1'
b0 &
bx +
bx ,
bx -
b0 .
1/
#490
0!
b11011000011110100111111111011010 #
b11011000011110100111111111011010 (
b10001000001001101000010110011100 $
b10001000001001101000010110011100 )
b10 %
b10 *
#495
1!
0'
b10001000001000100000010110011000 &
b11011000011110100111111111011010 +
b10001000001001101000010110011100 ,
b10 -
b10001000001000100000010110011000 .
0/
#500
0!
bx #
bx (
bx $
bx )
bx %
bx *
#505
1!
1'
b0 &
bx +
bx ,
bx -
b0 .
1/
#510
0!
b10110000110011111101010110111010 #
b10110000110011111101010110111010 (
b101000000100100100101110001 $
b101000000100100100101110001 )
b1 %
b1 *
#515
1!
0'
b10101011110011011000110001001001 &
b10110000110011111101010110111010 +
b101000000100100100101110001 ,
b1 -
b10101011110011011000110001001001 .
0/
#520
0!
bx #
bx (
bx $
bx )
bx %
bx *
#525
1!
1'
b0 &
bx +
bx ,
bx -
b0 .
1/
#530
0!
b11101010011011001111110001001110 #
b11101010011011001111110001001110 (
b10100011101110110111000000000 $
b10100011101110110111000000000 )
b11 %
b11 *
#535
1!
0'
b11111110011111111111111001001110 &
b11101010011011001111110001001110 +
b10100011101110110111000000000 ,
b11 -
b11111110011111111111111001001110 .
0/
#540
0!
bx #
bx (
bx $
bx )
bx %
bx *
#545
1!
1'
b0 &
bx +
bx ,
bx -
b0 .
1/
#550
0!
b10000101010100011111001110011000 #
b10000101010100011111001110011000 (
b11010100101000101110001110101 $
b11010100101000101110001110101 )
b101 %
b101 *
#555
1!
b10000101010100011111001110011000 +
b11010100101000101110001110101 ,
b101 -
#560
0!
bx #
bx (
bx $
bx )
bx %
bx *
#565
1!
bx +
bx ,
bx -
#570
0!
b10000001011111101011101110010110 #
b10000001011111101011101110010110 (
b10110011010010101010101110100101 $
b10110011010010101010101110100101 )
b100 %
b100 *
#575
1!
0'
b110010001101000001000000110011 &
b10000001011111101011101110010110 +
b10110011010010101010101110100101 ,
b100 -
b110010001101000001000000110011 .
0/
#580
0!
bx #
bx (
bx $
bx )
bx %
bx *
#585
1!
1'
b0 &
bx +
bx ,
bx -
b0 .
1/
#590
0!
b11011110111100110101010001001010 #
b11011110111100110101010001001010 (
b10001111001111100100001111101000 $
b10001111001111100100001111101000 )
b11 %
b11 *
#595
1!
0'
b11011111111111110101011111101010 &
b11011110111100110101010001001010 +
b10001111001111100100001111101000 ,
b11 -
b11011111111111110101011111101010 .
0/
#600
0!
bx #
bx (
bx $
bx )
bx %
bx *
#605
1!
1'
b0 &
bx +
bx ,
bx -
b0 .
1/
#610
0!
b10011101101011111011110110110100 #
b10011101101011111011110110110100 (
b1100001110110011010011000010011 $
b1100001110110011010011000010011 )
b1 %
b1 *
#615
1!
0'
b111011110101100001011110100001 &
b10011101101011111011110110110100 +
b1100001110110011010011000010011 ,
b1 -
b111011110101100001011110100001 .
0/
#620
0!
bx #
bx (
bx $
bx )
bx %
bx *
#625
1!
1'
b0 &
bx +
bx ,
bx -
b0 .
1/
#630
0!
b10111101101100111111011111010010 #
b10111101101100111111011111010010 (
b11000111000011100110100011111000 $
b11000111000011100110100011111000 )
b100 %
b100 *
#635
1!
0'
b1111010101111011001111100101010 &
b10111101101100111111011111010010 +
b11000111000011100110100011111000 ,
b100 -
b1111010101111011001111100101010 .
0/
#640
0!
bx #
bx (
bx $
bx )
bx %
bx *
#645
1!
1'
b0 &
bx +
bx ,
bx -
b0 .
1/
#650
0!
b111111000000000000001010100110 #
b111111000000000000001010100110 (
b100010111010101111010111000011 $
b100010111010101111010111000011 )
b101 %
b101 *
#655
1!
b111111000000000000001010100110 +
b100010111010101111010111000011 ,
b101 -
#660
0!
bx #
bx (
bx $
bx )
bx %
bx *
#665
1!
bx +
bx ,
bx -
#670
0!
b100001100100111101111000101110 #
b100001100100111101111000101110 (
b10001011000001110001101001001 $
b10001011000001110001101001001 )
b100 %
b100 *
#675
1!
0'
b110000111100110011110101100111 &
b100001100100111101111000101110 +
b10001011000001110001101001001 ,
b100 -
b110000111100110011110101100111 .
0/
#680
0!
bx #
bx (
bx $
bx )
bx %
bx *
#685
1!
1'
b0 &
bx +
bx ,
bx -
b0 .
1/
#690
0!
b1100101011011111000101001101100 #
b1100101011011111000101001101100 (
b1000011000101000001100111100010 $
b1000011000101000001100111100010 )
b10 %
b10 *
#695
1!
0'
b1000001000001000000100001100000 &
b1100101011011111000101001101100 +
b1000011000101000001100111100010 ,
b10 -
b1000001000001000000100001100000 .
0/
#700
0!
bx #
bx (
bx $
bx )
bx %
bx *
#705
1!
1'
b0 &
bx +
bx ,
bx -
b0 .
1/
#710
0!
b1010100100110000011101100000 #
b1010100100110000011101100000 (
b1101011011011110001101001100011 $
b1101011011011110001101001100011 )
b0 %
b0 *
#715
1!
0'
b1110110000000100010000111000011 &
b1010100100110000011101100000 +
b1101011011011110001101001100011 ,
b0 -
b1110110000000100010000111000011 .
0/
#720
0!
bx #
bx (
bx $
bx )
bx %
bx *
#725
1!
1'
b0 &
bx +
bx ,
bx -
b0 .
1/
#730
0!
b10000111111100101010100001000 #
b10000111111100101010100001000 (
b100110011000110111101110011101 $
b100110011000110111101110011101 )
b11 %
b11 *
#735
1!
0'
b110110111111110111111110011101 &
b10000111111100101010100001000 +
b100110011000110111101110011101 ,
b11 -
b110110111111110111111110011101 .
0/
#740
0!
bx #
bx (
bx $
bx )
bx %
bx *
#745
1!
1'
b0 &
bx +
bx ,
bx -
b0 .
1/
#750
0!
b1111000101100010111001101100110 #
b1111000101100010111001101100110 (
b100100100101010010010111101100 $
b100100100101010010010111101100 )
b110 %
b110 *
#755
1!
b1111000101100010111001101100110 +
b100100100101010010010111101100 ,
b110 -
#760
0!
bx #
bx (
bx $
bx )
bx %
bx *
#765
1!
bx +
bx ,
bx -
#770
0!
b1000001101011000110001001111000 #
b1000001101011000110001001111000 (
b1101000110010101011000111000111 $
b1101000110010101011000111000111 )
b100 %
b100 *
#775
1!
0'
b101001011001101101001110111111 &
b1000001101011000110001001111000 +
b1101000110010101011000111000111 ,
b100 -
b101001011001101101001110111111 .
0/
#780
0!
bx #
bx (
bx $
bx )
bx %
bx *
#785
1!
1'
b0 &
bx +
bx ,
bx -
b0 .
1/
#790
0!
b1101011111011110010001001000000 #
b1101011111011110010001001000000 (
b11110000001111011000011010110111 $
b11110000001111011000011010110111 )
b10 %
b10 *
#795
1!
0'
b1100000001011010000001000000000 &
b1101011111011110010001001000000 +
b11110000001111011000011010110111 ,
b10 -
b1100000001011010000001000000000 .
0/
#800
0!
bx #
bx (
bx $
bx )
bx %
bx *
#805
1!
1'
b0 &
bx +
bx ,
bx -
b0 .
1/
#810
0!
b11110111011110011011001010111101 #
b11110111011110011011001010111101 (
b1100010100110111011000010001101 $
b1100010100110111011000010001101 )
b111 %
b111 *
#815
1!
b11110111011110011011001010111101 +
b1100010100110111011000010001101 ,
b111 -
#820
0!
bx #
bx (
bx $
bx )
bx %
bx *
#825
1!
bx +
bx ,
bx -
#830
0!
b11100100010011000001001111110000 #
b11100100010011000001001111110000 (
b11001011101000011010010001001011 $
b11001011101000011010010001001011 )
b11 %
b11 *
#835
1!
0'
b11101111111011011011011111111011 &
b11100100010011000001001111110000 +
b11001011101000011010010001001011 ,
b11 -
b11101111111011011011011111111011 .
0/
#840
0!
bx #
bx (
bx $
bx )
bx %
bx *
#845
1!
1'
b0 &
bx +
bx ,
bx -
b0 .
1/
#850
0!
b110010011001100100010111010111 #
b110010011001100100010111010111 (
b1111010101010110111100110010110 $
b1111010101010110111100110010110 )
b11 %
b11 *
#855
1!
0'
b1111010111011110111110111010111 &
b110010011001100100010111010111 +
b1111010101010110111100110010110 ,
b11 -
b1111010111011110111110111010111 .
0/
#860
0!
bx #
bx (
bx $
bx )
bx %
bx *
#865
1!
1'
b0 &
bx +
bx ,
bx -
b0 .
1/
#870
0!
b11100001110010000100100001110100 #
b11100001110010000100100001110100 (
b10111001100010000001011100100001 $
b10111001100010000001011100100001 )
b100 %
b100 *
#875
1!
0'
b1011000010000000101111101010101 &
b11100001110010000100100001110100 +
b10111001100010000001011100100001 ,
b100 -
b1011000010000000101111101010101 .
0/
#880
0!
bx #
bx (
bx $
bx )
bx %
bx *
#885
1!
1'
b0 &
bx +
bx ,
bx -
b0 .
1/
#890
0!
b11110010011100100001101111000110 #
b11110010011100100001101111000110 (
b10010110101110101000101001100111 $
b10010110101110101000101001100111 )
b10 %
b10 *
#895
1!
0'
b10010010001100100000101001000110 &
b11110010011100100001101111000110 +
b10010110101110101000101001100111 ,
b10 -
b10010010001100100000101001000110 .
0/
#900
0!
bx #
bx (
bx $
bx )
bx %
bx *
#905
1!
1'
b0 &
bx +
bx ,
bx -
b0 .
1/
#910
0!
b1100100011000111011111111001101 #
b1100100011000111011111111001101 (
b10010010000101101001101100110 $
b10010010000101101001101100110 )
b110 %
b110 *
#915
1!
b1100100011000111011111111001101 +
b10010010000101101001101100110 ,
b110 -
#920
0!
bx #
bx (
bx $
bx )
bx %
bx *
#925
1!
bx +
bx ,
bx -
#930
0!
b110111100111010011010010001010 #
b110111100111010011010010001010 (
b11010001000010000110010101111010 $
b11010001000010000110010101111010 )
b10 %
b10 *
#935
1!
0'
b10001000010000010010000001010 &
b110111100111010011010010001010 +
b11010001000010000110010101111010 ,
b10 -
b10001000010000010010000001010 .
0/
#940
0!
bx #
bx (
bx $
bx )
bx %
bx *
#945
1!
1'
b0 &
bx +
bx ,
bx -
b0 .
1/
#950
0!
b1101100000111100111100111111011 #
b1101100000111100111100111111011 (
b100010011001110101100001000111 $
b100010011001110101100001000111 )
b10 %
b10 *
#955
1!
0'
b100000000001100101100001000011 &
b1101100000111100111100111111011 +
b100010011001110101100001000111 ,
b10 -
b100000000001100101100001000011 .
0/
#960
0!
bx #
bx (
bx $
bx )
bx %
bx *
#965
1!
1'
b0 &
bx +
bx ,
bx -
b0 .
1/
#970
0!
b1111001111001000000100010 #
b1111001111001000000100010 (
b1101010011011100001010011111100 $
b1101010011011100001010011111100 )
b10 %
b10 *
#975
1!
0'
b11001100001000000100000 &
b1111001111001000000100010 +
b1101010011011100001010011111100 ,
b10 -
b11001100001000000100000 .
0/
#980
0!
bx #
bx (
bx $
bx )
bx %
bx *
#985
1!
1'
b0 &
bx +
bx ,
bx -
b0 .
1/
#990
0!
b11111000111110000111011011111110 #
b11111000111110000111011011111110 (
b11101001111101011010010111000100 $
b11101001111101011010010111000100 )
b1 %
b1 *
#995
1!
0'
b1111000000101101000100111010 &
b11111000111110000111011011111110 +
b11101001111101011010010111000100 ,
b1 -
b1111000000101101000100111010 .
0/
#1000
0!
bx #
bx (
bx $
bx )
bx %
bx *
#1005
1!
1'
b0 &
bx +
bx ,
bx -
b0 .
1/
#1010
0!
b1010001010100010010111010001111 #
b1010001010100010010111010001111 (
b10111011001111011000110100011010 $
b10111011001111011000110100011010 )
b100 %
b100 *
#1015
1!
0'
b11101010011011001010001110010101 &
b1010001010100010010111010001111 +
b10111011001111011000110100011010 ,
b100 -
b11101010011011001010001110010101 .
0/
#1020
0!
bx #
bx (
bx $
bx )
bx %
bx *
#1025
1!
1'
b0 &
bx +
bx ,
bx -
b0 .
1/
#1030
0!
b1010111100011011011011010101 #
b1010111100011011011011010101 (
b1110111011100001100100101010110 $
b1110111011100001100100101010110 )
b110 %
b110 *
#1035
1!
b1010111100011011011011010101 +
b1110111011100001100100101010110 ,
b110 -
#1040
0!
bx #
bx (
bx $
bx )
bx %
bx *
#1045
1!
bx +
bx ,
bx -
#1050
0!
b100101110110100000111111010001 #
b100101110110100000111111010001 (
b1110110111000010100111010100111 $
b1110110111000010100111010100111 )
b0 %
b0 *
#1055
1!
b10011100101110110101111001111000 &
b100101110110100000111111010001 +
b1110110111000010100111010100111 ,
b0 -
b10011100101110110101111001111000 .
#1060
0!
bx #
bx (
bx $
bx )
bx %
bx *
#1065
1!
b0 &
bx +
bx ,
bx -
b0 .
#1070
0!
b10100010000010100011100110000001 #
b10100010000010100011100110000001 (
b1000111010110011010010110001 $
b1000111010110011010010110001 )
b111 %
b111 *
#1075
1!
b10100010000010100011100110000001 +
b1000111010110011010010110001 ,
b111 -
#1080
0!
bx #
bx (
bx $
bx )
bx %
bx *
#1085
1!
bx +
bx ,
bx -
#1090
0!
b1111111100000100011001111100111 #
b1111111100000100011001111100111 (
b10010001100111001110010010100010 $
b10010001100111001110010010100010 )
b101 %
b101 *
#1095
1!
b1111111100000100011001111100111 +
b10010001100111001110010010100010 ,
b101 -
#1100
0!
bx #
bx (
bx $
bx )
bx %
bx *
#1105
1!
bx +
bx ,
bx -
#1110
0!
b10111110010000011111111100000010 #
b10111110010000011111111100000010 (
b101001110011110100101111011 $
b101001110011110100101111011 )
b1 %
b1 *
#1115
1!
0'
b10111001000010000001010110000111 &
b10111110010000011111111100000010 +
b101001110011110100101111011 ,
b1 -
b10111001000010000001010110000111 .
0/
#1120
0!
bx #
bx (
bx $
bx )
bx %
bx *
#1125
1!
1'
b0 &
bx +
bx ,
bx -
b0 .
1/
#1130
0!
b1011110010010011001101011010011 #
b1011110010010011001101011010011 (
b1101111011111101011100000111010 $
b1101111011111101011100000111010 )
b101 %
b101 *
#1135
1!
b1011110010010011001101011010011 +
b1101111011111101011100000111010 ,
b101 -
#1140
0!
bx #
bx (
bx $
bx )
bx %
bx *
#1145
1!
bx +
bx ,
bx -
#1150
0!
b1011111100110010000011101011000 #
b1011111100110010000011101011000 (
b1101100010111001110011110110100 $
b1101100010111001110011110110100 )
b101 %
b101 *
#1155
1!
b1011111100110010000011101011000 +
b1101100010111001110011110110100 ,
b101 -
#1160
0!
bx #
bx (
bx $
bx )
bx %
bx *
#1165
1!
bx +
bx ,
bx -
#1170
0!
b11000010001100000100010010010011 #
b11000010001100000100010010010011 (
b10101100011110000110000001000001 $
b10101100011110000110000001000001 )
b101 %
b101 *
#1175
1!
b11000010001100000100010010010011 +
b10101100011110000110000001000001 ,
b101 -
#1180
0!
bx #
bx (
bx $
bx )
bx %
bx *
#1185
1!
bx +
bx ,
bx -
#1190
0!
b10000110000011110101001010000011 #
b10000110000011110101001010000011 (
b10001010111010011010111010001001 $
b10001010111010011010111010001001 )
b11 %
b11 *
#1195
1!
0'
b10001110111011111111111010001011 &
b10000110000011110101001010000011 +
b10001010111010011010111010001001 ,
b11 -
b10001110111011111111111010001011 .
0/
#1200
0!
bx #
bx (
bx $
bx )
bx %
bx *
#1205
1!
1'
b0 &
bx +
bx ,
bx -
b0 .
1/
#1210
0!
b10101011001101100011000100101000 #
b10101011001101100011000100101000 (
b1010100010001100101000110110111 $
b1010100010001100101000110110111 )
b111 %
b111 *
#1215
1!
b10101011001101100011000100101000 +
b1010100010001100101000110110111 ,
b111 -
#1220
0!
bx #
bx (
bx $
bx )
bx %
bx *
#1225
1!
bx +
bx ,
bx -
#1230
0!
b110001101001001110000010000010 #
b110001101001001110000010000010 (
b10111011111110001100101010011111 $
b10111011111110001100101010011111 )
b1 %
b1 *
#1235
1!
0'
b1110101101011000001010111100011 &
b110001101001001110000010000010 +
b10111011111110001100101010011111 ,
b1 -
b1110101101011000001010111100011 .
0/
#1240
0!
bx #
bx (
bx $
bx )
bx %
bx *
#1245
1!
1'
b0 &
bx +
bx ,
bx -
b0 .
1/
#1250
0!
b11001010110110110000010010010 #
b11001010110110110000010010010 (
b1100110111010001000110010011100 $
b1100110111010001000110010011100 )
b10 %
b10 *
#1255
1!
0'
b10010000000000010010000 &
b11001010110110110000010010010 +
b1100110111010001000110010011100 ,
b10 -
b10010000000000010010000 .
0/
#1260
0!
bx #
bx (
bx $
bx )
bx %
bx *
#1265
1!
1'
b0 &
bx +
bx ,
bx -
b0 .
1/
#1270
0!
b1100010010110011011000101010110 #
b1100010010110011011000101010110 (
b10100100011100011010111101010010 $
b10100100011100011010111101010010 )
b1 %
b1 *
#1275
1!
0'
b10111101111010000000001000000100 &
b1100010010110011011000101010110 +
b10100100011100011010111101010010 ,
b1 -
b10111101111010000000001000000100 .
0/
#1280
0!
bx #
bx (
bx $
bx )
bx %
bx *
#1285
1!
1'
b0 &
bx +
bx ,
bx -
b0 .
1/
#1290
0!
b1100100111111101001011010000 #
b1100100111111101001011010000 (
b11011000101000101001101111101111 $
b11011000101000101001101111101111 )
b110 %
b110 *
#1295
1!
b1100100111111101001011010000 +
b11011000101000101001101111101111 ,
b110 -
#1300
0!
bx #
bx (
bx $
bx )
bx %
bx *
#1305
1!
bx +
bx ,
bx -
#1310
0!
b11000001011011100010011111111 #
b11000001011011100010011111111 (
b11110111101111101101110101110100 $
b11110111101111101101110101110100 )
b10 %
b10 *
#1315
1!
0'
b10000001011001100010001110100 &
b11000001011011100010011111111 +
b11110111101111101101110101110100 ,
b10 -
b10000001011001100010001110100 .
0/
#1320
0!
bx #
bx (
bx $
bx )
bx %
bx *
#1325
1!
1'
b0 &
bx +
bx ,
bx -
b0 .
1/
#1330
0!
b10000101000000111000011111100100 #
b10000101000000111000011111100100 (
b1011010000110000110100000001100 $
b1011010000110000110100000001100 )
b110 %
b110 *
#1335
1!
b10000101000000111000011111100100 +
b1011010000110000110100000001100 ,
b110 -
#1340
0!
bx #
bx (
bx $
bx )
bx %
bx *
#1345
1!
bx +
bx ,
bx -
#1350
0!
b1010011001000010001101101111101 #
b1010011001000010001101101111101 (
b10011101011101010000110010 $
b10011101011101010000110010 )
b110 %
b110 *
#1355
1!
b1010011001000010001101101111101 +
b10011101011101010000110010 ,
b110 -
#1360
0!
bx #
bx (
bx $
bx )
bx %
bx *
#1365
1!
bx +
bx ,
bx -
#1370
0!
b10000010100001100111111111001100 #
b10000010100001100111111111001100 (
b11101110000100001000100101101011 $
b11101110000100001000100101101011 )
b110 %
b110 *
#1375
1!
b10000010100001100111111111001100 +
b11101110000100001000100101101011 ,
b110 -
#1380
0!
bx #
bx (
bx $
bx )
bx %
bx *
#1385
1!
bx +
bx ,
bx -
#1390
0!
b10011001100111011010011010000 #
b10011001100111011010011010000 (
b1111000000000010001010001011110 $
b1111000000000010001010001011110 )
b11 %
b11 *
#1395
1!
0'
b1111011001100111011010011011110 &
b10011001100111011010011010000 +
b1111000000000010001010001011110 ,
b11 -
b1111011001100111011010011011110 .
0/
#1400
0!
bx #
bx (
bx $
bx )
bx %
bx *
#1405
1!
1'
b0 &
bx +
bx ,
bx -
b0 .
1/
#1410
0!
b101001010001011101010001001 #
b101001010001011101010001001 (
b11101100110111001111010000111001 $
b11101100110111001111010000111001 )
b111 %
b111 *
#1415
1!
b101001010001011101010001001 +
b11101100110111001111010000111001 ,
b111 -
#1420
0!
bx #
bx (
bx $
bx )
bx %
bx *
#1425
1!
bx +
bx ,
bx -
#1430
0!
b1011000011001011001000011110111 #
b1011000011001011001000011110111 (
b1001100101001000010100011111010 $
b1001100101001000010100011111010 )
b1 %
b1 *
#1435
1!
0'
b1011110000010110011111111101 &
b1011000011001011001000011110111 +
b1001100101001000010100011111010 ,
b1 -
b1011110000010110011111111101 .
0/
#1440
0!
bx #
bx (
bx $
bx )
bx %
bx *
#1445
1!
1'
b0 &
bx +
bx ,
bx -
b0 .
1/
#1450
0!
b1100111010100011100000011010 #
b1100111010100011100000011010 (
b1001010110000010011001101110101 $
b1001010110000010011001101110101 )
b0 %
b0 *
