dump.vcd
$date
    Jan  7, 2026  21:18:46
$end
$version
    TOOL:	xmsim(64)	25.03-s006
$end
$timescale
    1 ps
$end

$scope module top $end
$var reg       1 !    clk $end
$var reg       1 "    rst $end

$scope module alu_if $end
$var wire      1 #    clk  $end
$var wire      1 $    rst  $end
$var reg      32 %    A [31:0] $end
$var reg      32 &    B [31:0] $end
$var reg       3 '    Opcode [2:0] $end
$var reg      32 (    Result [31:0] $end
$var reg       1 )    Error $end

$scope clocking cb_drv $end
$var reg      32 *    A [31:0] $end
$var reg      32 +    B [31:0] $end
$var reg       3 ,    Opcode [2:0] $end
$upscope $end


$scope clocking cb_mon $end
$var reg      32 -    A [31:0] $end
$var reg      32 .    B [31:0] $end
$var reg       3 /    Opcode [2:0] $end
$var reg      32 0    Result [31:0] $end
$var reg       1 1    Error $end
$upscope $end

$upscope $end


$scope module dut $end
$var wire      1 2    clk  $end
$var wire      1 3    rst  $end
$var wire     32 4    A [31:0] $end
$var wire     32 5    B [31:0] $end
$var wire      3 6    Opcode [2:0] $end
$var reg      32 7    Result [31:0] $end
$var reg       1 8    Error $end
$var reg      32 9    result_next [31:0] $end
$var reg       1 :    error_next $end
$upscope $end

$upscope $end

$enddefinitions $end
$dumpvars
0!
1"
0#
1$
bx %
bx &
bx '
b0 (
0)
bx *
bx +
bx ,
bx -
bx .
bx /
bx 0
x1
02
13
bx 4
bx 5
bx 6
b0 7
08
b0 9
0:
$end
#5000
1!
12
1#
b0 0
01
#10000
0!
02
0#
b10010000101000110000011101000100 %
b10010000101000110000011101000100 *
b10111011011000110110111101011000 &
b10111011011000110110111101011000 +
b11 '
b11 ,
b11 6
b10111011011000110110111101011000 5
b10010000101000110000011101000100 4
#15000
1!
12
1#
b10010000101000110000011101000100 -
b10111011011000110110111101011000 .
b11 /
#20000
0"
0!
02
0#
03
0$
b10111011111000110110111101011100 9
bx %
bx *
bx &
bx +
bx '
bx ,
bx 6
bx 5
bx 4
b0 9
1:
#25000
1!
12
1#
18
1)
bx -
bx .
bx /
11
#30000
0!
02
0#
b1001010001111001100110000100111 %
b1001010001111001100110000100111 *
b101001110101101111000100111001 &
b101001110101101111000100111001 +
b0 '
b0 ,
b0 6
b101001110101101111000100111001 5
b1001010001111001100110000100111 4
0:
b1110100000100111011110101100000 9
#35000
1!
12
1#
b1110100000100111011110101100000 7
08
0)
b1110100000100111011110101100000 (
b1001010001111001100110000100111 -
b101001110101101111000100111001 .
b0 /
b1110100000100111011110101100000 0
01
#40000
0!
02
0#
bx %
bx *
bx &
bx +
bx '
bx ,
bx 6
bx 5
bx 4
b0 9
1:
#45000
1!
12
1#
b0 7
18
1)
b0 (
bx -
bx .
bx /
b0 0
11
#50000
0!
02
0#
b1100101000111100110000110111110 %
b1100101000111100110000110111110 *
b101010111000111101001111010100 &
b101010111000111101001111010100 +
b1 '
b1 ,
b1 6
b101010111000111101001111010100 5
b1100101000111100110000110111110 4
0:
b111010001110101000110111101010 9
#55000
1!
12
1#
b111010001110101000110111101010 7
08
0)
b111010001110101000110111101010 (
b1100101000111100110000110111110 -
b101010111000111101001111010100 .
b1 /
b111010001110101000110111101010 0
01
#60000
0!
02
0#
bx %
bx *
bx &
bx +
bx '
bx ,
bx 6
bx 5
bx 4
b0 9
1:
#65000
1!
12
1#
b0 7
18
1)
b0 (
bx -
bx .
bx /
b0 0
11
#70000
0!
02
0#
b11100001010001111100100000001011 %
b11100001010001111100100000001011 *
b1101111001011011111111110000010 &
b1101111001011011111111110000010 +
b10 '
b10 ,
b10 6
b1101111001011011111111110000010 5
b11100001010001111100100000001011 4
0:
b1100001000001011100100000000010 9
#75000
1!
12
1#
b1100001000001011100100000000010 7
08
0)
b1100001000001011100100000000010 (
b11100001010001111100100000001011 -
b1101111001011011111111110000010 .
b10 /
b1100001000001011100100000000010 0
01
#80000
0!
02
0#
bx %
bx *
bx &
bx +
bx '
bx ,
bx 6
bx 5
bx 4
b0 9
1:
#85000
1!
12
1#
b0 7
18
1)
b0 (
bx -
bx .
bx /
b0 0
11
#90000
0!
02
0#
b10111110101110001111111100001101 %
b10111110101110001111111100001101 *
b1010001110011100000000011101011 &
b1010001110011100000000011101011 +
b1 '
b1 ,
b1 6
b1010001110011100000000011101011 5
b10111110101110001111111100001101 4
0:
b1101100111010101111111000100010 9
#95000
1!
12
1#
b1101100111010101111111000100010 7
08
0)
b1101100111010101111111000100010 (
b10111110101110001111111100001101 -
b1010001110011100000000011101011 .
b1 /
b1101100111010101111111000100010 0
01
#100000
0!
02
0#
bx %
bx *
bx &
bx +
bx '
bx ,
bx 6
bx 5
bx 4
b0 9
1:
#105000
1!
12
1#
b0 7
18
1)
b0 (
bx -
bx .
bx /
b0 0
11
#110000
0!
02
0#
b11111101011100100000011011000101 %
b11111101011100100000011011000101 *
b1110111101010110100101101101000 &
b1110111101010110100101101101000 +
b0 '
b0 ,
b0 6
b1110111101010110100101101101000 5
b11111101011100100000011011000101 4
0:
b1110101000111010101001000101101 9
#115000
1!
12
1#
b1110101000111010101001000101101 7
08
0)
b1110101000111010101001000101101 (
b11111101011100100000011011000101 -
b1110111101010110100101101101000 .
b0 /
b1110101000111010101001000101101 0
01
#120000
0!
02
0#
bx %
bx *
bx &
bx +
bx '
bx ,
bx 6
bx 5
bx 4
b0 9
1:
#125000
1!
12
1#
b0 7
18
1)
b0 (
bx -
bx .
bx /
b0 0
11
#130000
0!
02
0#
b10011101011100101101111100110001 %
b10011101011100101101111100110001 *
b11100011100011000111011101110010 &
b11100011100011000111011101110010 +
b11 '
b11 ,
b11 6
b11100011100011000111011101110010 5
b10011101011100101101111100110001 4
0:
b11111111111111101111111101110011 9
#135000
1!
12
1#
b11111111111111101111111101110011 7
08
0)
b11111111111111101111111101110011 (
b10011101011100101101111100110001 -
b11100011100011000111011101110010 .
b11 /
b11111111111111101111111101110011 0
01
#140000
0!
02
0#
bx %
bx *
bx &
bx +
bx '
bx ,
bx 6
bx 5
bx 4
b0 9
1:
#145000
1!
12
1#
b0 7
18
1)
b0 (
bx -
bx .
bx /
b0 0
11
#150000
0!
02
0#
b10011110101110111000100001010011 %
b10011110101110111000100001010011 *
b10010010101010101110110010001111 &
b10010010101010101110110010001111 +
b110 '
b110 ,
b110 6
b10010010101010101110110010001111 5
b10011110101110111000100001010011 4
0:
1:
#155000
1!
12
1#
b10011110101110111000100001010011 -
b10010010101010101110110010001111 .
b110 /
#160000
0!
02
0#
bx %
bx *
bx &
bx +
bx '
bx ,
bx 6
bx 5
bx 4
0:
1:
#165000
1!
12
1#
bx -
bx .
bx /
#170000
0!
02
0#
b1010011000000001000101010 %
b1010011000000001000101010 *
b11100000000111110011011101100111 &
b11100000000111110011011101100111 +
b110 '
b110 ,
b110 6
b11100000000111110011011101100111 5
b1010011000000001000101010 4
0:
1:
#175000
1!
12
1#
b1010011000000001000101010 -
b11100000000111110011011101100111 .
b110 /
#180000
0!
02
0#
bx %
bx *
bx &
bx +
bx '
bx ,
bx 6
bx 5
bx 4
0:
1:
#185000
1!
12
1#
bx -
bx .
bx /
#190000
0!
02
0#
b11000101001001000100110010110110 %
b11000101001001000100110010110110 *
b1100101000101000101011001010011 &
b1100101000101000101011001010011 +
b110 '
b110 ,
b110 6
b1100101000101000101011001010011 5
b11000101001001000100110010110110 4
0:
1:
#195000
1!
12
1#
b11000101001001000100110010110110 -
b1100101000101000101011001010011 .
b110 /
#200000
0!
02
0#
bx %
bx *
bx &
bx +
bx '
bx ,
bx 6
bx 5
bx 4
0:
1:
#205000
1!
12
1#
bx -
bx .
bx /
#210000
0!
02
0#
b11101010010001000110011111110111 %
b11101010010001000110011111110111 *
b10001000010111110100101011111000 &
b10001000010111110100101011111000 +
b11 '
b11 ,
b11 6
b10001000010111110100101011111000 5
b11101010010001000110011111110111 4
0:
b11101010010111110110111111111111 9
#215000
1!
12
1#
b11101010010111110110111111111111 7
08
0)
b11101010010111110110111111111111 (
b11101010010001000110011111110111 -
b10001000010111110100101011111000 .
b11 /
b11101010010111110110111111111111 0
01
#220000
0!
02
0#
bx %
bx *
bx &
bx +
bx '
bx ,
bx 6
bx 5
bx 4
b0 9
1:
#225000
1!
12
1#
b0 7
18
1)
b0 (
bx -
bx .
bx /
b0 0
11
#230000
0!
02
0#
b1110000101011000101001111101101 %
b1110000101011000101001111101101 *
b1001010000000000001010101011000 &
b1001010000000000001010101011000 +
b101 '
b101 ,
b101 6
b1001010000000000001010101011000 5
b1110000101011000101001111101101 4
0:
1:
#235000
1!
12
1#
b1110000101011000101001111101101 -
b1001010000000000001010101011000 .
b101 /
#240000
0!
02
0#
bx %
bx *
bx &
bx +
bx '
bx ,
bx 6
bx 5
bx 4
0:
1:
#245000
1!
12
1#
bx -
bx .
bx /
#250000
0!
02
0#
b1011000010111000001000010011001 %
b1011000010111000001000010011001 *
b1001110110111100010100011001100 &
b1001110110111100010100011001100 +
b0 '
b0 ,
b0 6
b1001110110111100010100011001100 5
b1011000010111000001000010011001 4
0:
b10100111001110100011100101100101 9
1:
#255000
1!
12
1#
b10100111001110100011100101100101 7
b10100111001110100011100101100101 (
b1011000010111000001000010011001 -
b1001110110111100010100011001100 .
b0 /
b10100111001110100011100101100101 0
#260000
0!
02
0#
bx %
bx *
bx &
bx +
bx '
bx ,
bx 6
bx 5
bx 4
b0 9
0:
1:
#265000
1!
12
1#
b0 7
b0 (
bx -
bx .
bx /
b0 0
#270000
0!
02
0#
b10100001010100111001110111111010 %
b10100001010100111001110111111010 *
b111110101001111001000100100110 &
b111110101001111001000100100110 +
b1 '
b1 ,
b1 6
b111110101001111001000100100110 5
b10100001010100111001110111111010 4
0:
b1100010101011000000110011010100 9
#275000
1!
12
1#
b1100010101011000000110011010100 7
08
0)
b1100010101011000000110011010100 (
b10100001010100111001110111111010 -
b111110101001111001000100100110 .
b1 /
b1100010101011000000110011010100 0
01
#280000
0!
02
0#
bx %
bx *
bx &
bx +
bx '
bx ,
bx 6
bx 5
bx 4
b0 9
1:
#285000
1!
12
1#
b0 7
18
1)
b0 (
bx -
bx .
bx /
b0 0
11
#290000
0!
02
0#
b1001011100100101111110000010000 %
b1001011100100101111110000010000 *
b11001100110001101100111100111011 &
b11001100110001101100111100111011 +
b111 '
b111 ,
b111 6
b11001100110001101100111100111011 5
b1001011100100101111110000010000 4
0:
1:
#295000
1!
12
1#
b1001011100100101111110000010000 -
b11001100110001101100111100111011 .
b111 /
#300000
0!
02
0#
bx %
bx *
bx &
bx +
bx '
bx ,
bx 6
bx 5
bx 4
0:
1:
#305000
1!
12
1#
bx -
bx .
bx /
#310000
0!
02
0#
b1010111000110100010101011011011 %
b1010111000110100010101011011011 *
b1000101110100010110001000110111 &
b1000101110100010110001000110111 +
b100 '
b100 ,
b100 6
b1000101110100010110001000110111 5
b1010111000110100010101011011011 4
0:
b10010110010110100100011101100 9
#315000
1!
12
1#
b10010110010110100100011101100 7
08
0)
b10010110010110100100011101100 (
b1010111000110100010101011011011 -
b1000101110100010110001000110111 .
b100 /
b10010110010110100100011101100 0
01
#320000
0!
02
0#
bx %
bx *
bx &
bx +
bx '
bx ,
bx 6
bx 5
bx 4
b0 9
1:
#325000
1!
12
1#
b0 7
18
1)
b0 (
bx -
bx .
bx /
b0 0
11
#330000
0!
02
0#
b11000011111010010010101001011100 %
b11000011111010010010101001011100 *
b10000110010011111001000111 &
b10000110010011111001000111 +
b1 '
b1 ,
b1 6
b10000110010011111001000111 5
b11000011111010010010101001011100 4
0:
b11000001110011111110110000010101 9
#335000
1!
12
1#
b11000001110011111110110000010101 7
08
0)
b11000001110011111110110000010101 (
b11000011111010010010101001011100 -
b10000110010011111001000111 .
b1 /
b11000001110011111110110000010101 0
01
#340000
0!
02
0#
bx %
bx *
bx &
bx +
bx '
bx ,
bx 6
bx 5
bx 4
b0 9
1:
#345000
1!
12
1#
b0 7
18
1)
b0 (
bx -
bx .
bx /
b0 0
11
#350000
0!
02
0#
b10010001111111111111101010010001 %
b10010001111111111111101010010001 *
b100011001001111101111100011 &
b100011001001111101111100011 +
b1 '
b1 ,
b1 6
b100011001001111101111100011 5
b10010001111111111111101010010001 4
0:
b10001101100110101111111010101110 9
#355000
1!
12
1#
b10001101100110101111111010101110 7
08
0)
b10001101100110101111111010101110 (
b10010001111111111111101010010001 -
b100011001001111101111100011 .
b1 /
b10001101100110101111111010101110 0
01
#360000
0!
02
0#
bx %
bx *
bx &
bx +
bx '
bx ,
bx 6
bx 5
bx 4
b0 9
1:
#365000
1!
12
1#
b0 7
18
1)
b0 (
bx -
bx .
bx /
b0 0
11
#370000
0!
02
0#
b11000001010111101001101101111100 %
b11000001010111101001101101111100 *
b1001001111011100000001010010100 &
b1001001111011100000001010010100 +
b10 '
b10 ,
b10 6
b1001001111011100000001010010100 5
b11000001010111101001101101111100 4
0:
b1000001010011100000001000010100 9
#375000
1!
12
1#
b1000001010011100000001000010100 7
08
0)
b1000001010011100000001000010100 (
b11000001010111101001101101111100 -
b1001001111011100000001010010100 .
b10 /
b1000001010011100000001000010100 0
01
#380000
0!
02
0#
bx %
bx *
bx &
bx +
bx '
bx ,
bx 6
bx 5
bx 4
b0 9
1:
#385000
1!
12
1#
b0 7
18
1)
b0 (
bx -
bx .
bx /
b0 0
11
#390000
0!
02
0#
b1010010000001010000110100011100 %
b1010010000001010000110100011100 *
b101101110011001101111011111110 &
b101101110011001101111011111110 +
b1 '
b1 ,
b1 6
b101101110011001101111011111110 5
b1010010000001010000110100011100 4
0:
b100100001110000010111000011110 9
#395000
1!
12
1#
b100100001110000010111000011110 7
08
0)
b100100001110000010111000011110 (
b1010010000001010000110100011100 -
b101101110011001101111011111110 .
b1 /
b100100001110000010111000011110 0
01
#400000
0!
02
0#
bx %
bx *
bx &
bx +
bx '
bx ,
bx 6
bx 5
bx 4
b0 9
1:
#405000
1!
12
1#
b0 7
18
1)
b0 (
bx -
bx .
bx /
b0 0
11
#410000
0!
02
0#
b1000011111100110100111101110001 %
b1000011111100110100111101110001 *
b11111100100101110001000001010000 &
b11111100100101110001000001010000 +
b101 '
b101 ,
b101 6
b11111100100101110001000001010000 5
b1000011111100110100111101110001 4
0:
1:
#415000
1!
12
1#
b1000011111100110100111101110001 -
b11111100100101110001000001010000 .
b101 /
#420000
0!
02
0#
bx %
bx *
bx &
bx +
bx '
bx ,
bx 6
bx 5
bx 4
0:
1:
#425000
1!
12
1#
bx -
bx .
bx /
#430000
0!
02
0#
b10010111001010010110001001111100 %
b10010111001010010110001001111100 *
b1110100111101000101010110110 &
b1110100111101000101010110110 +
b10 '
b10 ,
b10 6
b1110100111101000101010110110 5
b10010111001010010110001001111100 4
0:
b110000010000000001000110100 9
#435000
1!
12
1#
b110000010000000001000110100 7
08
0)
b110000010000000001000110100 (
b10010111001010010110001001111100 -
b1110100111101000101010110110 .
b10 /
b110000010000000001000110100 0
01
#440000
0!
02
0#
bx %
bx *
bx &
bx +
bx '
bx ,
bx 6
bx 5
bx 4
b0 9
1:
#445000
1!
12
1#
b0 7
18
1)
b0 (
bx -
bx .
bx /
b0 0
11
#450000
0!
02
0#
b1001011101001110100011000111100 %
b1001011101001110100011000111100 *
b10111110111110111101101011010101 &
b10111110111110111101101011010101 +
b100 '
b100 ,
b100 6
b10111110111110111101101011010101 5
b1001011101001110100011000111100 4
0:
b11110101010111001001110011101001 9
#455000
1!
12
1#
b11110101010111001001110011101001 7
08
0)
b11110101010111001001110011101001 (
b1001011101001110100011000111100 -
b10111110111110111101101011010101 .
b100 /
b11110101010111001001110011101001 0
01
#460000
0!
02
0#
bx %
bx *
bx &
bx +
bx '
bx ,
bx 6
bx 5
bx 4
b0 9
1:
#465000
1!
12
1#
b0 7
18
1)
b0 (
bx -
bx .
bx /
b0 0
11
#470000
0!
02
0#
b1100001011011001111101010110000 %
b1100001011011001111101010110000 *
b1111100101000101110101111 &
b1111100101000101110101111 +
b11 '
b11 ,
b11 6
b1111100101000101110101111 5
b1100001011011001111101010110000 4
0:
b1100001111111101111101110111111 9
#475000
1!
12
1#
b1100001111111101111101110111111 7
08
0)
b1100001111111101111101110111111 (
b1100001011011001111101010110000 -
b1111100101000101110101111 .
b11 /
b1100001111111101111101110111111 0
01
#480000
0!
02
0#
bx %
bx *
bx &
bx +
bx '
bx ,
bx 6
bx 5
bx 4
b0 9
1:
#485000
1!
12
1#
b0 7
18
1)
b0 (
bx -
bx .
bx /
b0 0
11
#490000
0!
02
0#
b11011000011110100111111111011010 %
b11011000011110100111111111011010 *
b10001000001001101000010110011100 &
b10001000001001101000010110011100 +
b10 '
b10 ,
b10 6
b10001000001001101000010110011100 5
b11011000011110100111111111011010 4
0:
b10001000001000100000010110011000 9
#495000
1!
12
1#
b10001000001000100000010110011000 7
08
0)
b10001000001000100000010110011000 (
b11011000011110100111111111011010 -
b10001000001001101000010110011100 .
b10 /
b10001000001000100000010110011000 0
01
#500000
0!
02
0#
bx %
bx *
bx &
bx +
bx '
bx ,
bx 6
bx 5
bx 4
b0 9
1:
#505000
1!
12
1#
b0 7
18
1)
b0 (
bx -
bx .
bx /
b0 0
11
#510000
0!
02
0#
b10110000110011111101010110111010 %
b10110000110011111101010110111010 *
b101000000100100100101110001 &
b101000000100100100101110001 +
b1 '
b1 ,
b1 6
b101000000100100100101110001 5
b10110000110011111101010110111010 4
0:
b10101011110011011000110001001001 9
#515000
1!
12
1#
b10101011110011011000110001001001 7
08
0)
b10101011110011011000110001001001 (
b10110000110011111101010110111010 -
b101000000100100100101110001 .
b1 /
b10101011110011011000110001001001 0
01
#520000
0!
02
0#
bx %
bx *
bx &
bx +
bx '
bx ,
bx 6
bx 5
bx 4
b0 9
1:
#525000
1!
12
1#
b0 7
18
1)
b0 (
bx -
bx .
bx /
b0 0
11
#530000
0!
02
0#
b11101010011011001111110001001110 %
b11101010011011001111110001001110 *
b10100011101110110111000000000 &
b10100011101110110111000000000 +
b11 '
b11 ,
b11 6
b10100011101110110111000000000 5
b11101010011011001111110001001110 4
0:
b11111110011111111111111001001110 9
#535000
1!
12
1#
b11111110011111111111111001001110 7
08
0)
b11111110011111111111111001001110 (
b11101010011011001111110001001110 -
b10100011101110110111000000000 .
b11 /
b11111110011111111111111001001110 0
01
#540000
0!
02
0#
bx %
bx *
bx &
bx +
bx '
bx ,
bx 6
bx 5
bx 4
b0 9
1:
#545000
1!
12
1#
b0 7
18
1)
b0 (
bx -
bx .
bx /
b0 0
11
#550000
0!
02
0#
b10000101010100011111001110011000 %
b10000101010100011111001110011000 *
b11010100101000101110001110101 &
b11010100101000101110001110101 +
b101 '
b101 ,
b101 6
b11010100101000101110001110101 5
b10000101010100011111001110011000 4
0:
1:
#555000
1!
12
1#
b10000101010100011111001110011000 -
b11010100101000101110001110101 .
b101 /
#560000
0!
02
0#
bx %
bx *
bx &
bx +
bx '
bx ,
bx 6
bx 5
bx 4
0:
1:
#565000
1!
12
1#
bx -
bx .
bx /
#570000
0!
02
0#
b10000001011111101011101110010110 %
b10000001011111101011101110010110 *
b10110011010010101010101110100101 &
b10110011010010101010101110100101 +
b100 '
b100 ,
b100 6
b10110011010010101010101110100101 5
b10000001011111101011101110010110 4
0:
b110010001101000001000000110011 9
#575000
1!
12
1#
b110010001101000001000000110011 7
08
0)
b110010001101000001000000110011 (
b10000001011111101011101110010110 -
b10110011010010101010101110100101 .
b100 /
b110010001101000001000000110011 0
01
#580000
0!
02
0#
bx %
bx *
bx &
bx +
bx '
bx ,
bx 6
bx 5
bx 4
b0 9
1:
#585000
1!
12
1#
b0 7
18
1)
b0 (
bx -
bx .
bx /
b0 0
11
#590000
0!
02
0#
b11011110111100110101010001001010 %
b11011110111100110101010001001010 *
b10001111001111100100001111101000 &
b10001111001111100100001111101000 +
b11 '
b11 ,
b11 6
b10001111001111100100001111101000 5
b11011110111100110101010001001010 4
0:
b11011111111111110101011111101010 9
#595000
1!
12
1#
b11011111111111110101011111101010 7
08
0)
b11011111111111110101011111101010 (
b11011110111100110101010001001010 -
b10001111001111100100001111101000 .
b11 /
b11011111111111110101011111101010 0
01
#600000
0!
02
0#
bx %
bx *
bx &
bx +
bx '
bx ,
bx 6
bx 5
bx 4
b0 9
1:
#605000
1!
12
1#
b0 7
18
1)
b0 (
bx -
bx .
bx /
b0 0
11
#610000
0!
02
0#
b10011101101011111011110110110100 %
b10011101101011111011110110110100 *
b1100001110110011010011000010011 &
b1100001110110011010011000010011 +
b1 '
b1 ,
b1 6
b1100001110110011010011000010011 5
b10011101101011111011110110110100 4
0:
b111011110101100001011110100001 9
#615000
1!
12
1#
b111011110101100001011110100001 7
08
0)
b111011110101100001011110100001 (
b10011101101011111011110110110100 -
b1100001110110011010011000010011 .
b1 /
b111011110101100001011110100001 0
01
#620000
0!
02
0#
bx %
bx *
bx &
bx +
bx '
bx ,
bx 6
bx 5
bx 4
b0 9
1:
#625000
1!
12
1#
b0 7
18
1)
b0 (
bx -
bx .
bx /
b0 0
11
#630000
0!
02
0#
b10111101101100111111011111010010 %
b10111101101100111111011111010010 *
b11000111000011100110100011111000 &
b11000111000011100110100011111000 +
b100 '
b100 ,
b100 6
b11000111000011100110100011111000 5
b10111101101100111111011111010010 4
0:
b1111010101111011001111100101010 9
#635000
1!
12
1#
b1111010101111011001111100101010 7
08
0)
b1111010101111011001111100101010 (
b10111101101100111111011111010010 -
b11000111000011100110100011111000 .
b100 /
b1111010101111011001111100101010 0
01
#640000
0!
02
0#
bx %
bx *
bx &
bx +
bx '
bx ,
bx 6
bx 5
bx 4
b0 9
1:
#645000
1!
12
1#
b0 7
18
1)
b0 (
bx -
bx .
bx /
b0 0
11
#650000
0!
02
0#
b111111000000000000001010100110 %
b111111000000000000001010100110 *
b100010111010101111010111000011 &
b100010111010101111010111000011 +
b101 '
b101 ,
b101 6
b100010111010101111010111000011 5
b111111000000000000001010100110 4
0:
1:
#655000
1!
12
1#
b111111000000000000001010100110 -
b100010111010101111010111000011 .
b101 /
#660000
0!
02
0#
bx %
bx *
bx &
bx +
bx '
bx ,
bx 6
bx 5
bx 4
0:
1:
#665000
1!
12
1#
bx -
bx .
bx /
#670000
0!
02
0#
b100001100100111101111000101110 %
b100001100100111101111000101110 *
b10001011000001110001101001001 &
b10001011000001110001101001001 +
b100 '
b100 ,
b100 6
b10001011000001110001101001001 5
b100001100100111101111000101110 4
0:
b110000111100110011110101100111 9
#675000
1!
12
1#
b110000111100110011110101100111 7
08
0)
b110000111100110011110101100111 (
b100001100100111101111000101110 -
b10001011000001110001101001001 .
b100 /
b110000111100110011110101100111 0
01
#680000
0!
02
0#
bx %
bx *
bx &
bx +
bx '
bx ,
bx 6
bx 5
bx 4
b0 9
1:
#685000
1!
12
1#
b0 7
18
1)
b0 (
bx -
bx .
bx /
b0 0
11
#690000
0!
02
0#
b1100101011011111000101001101100 %
b1100101011011111000101001101100 *
b1000011000101000001100111100010 &
b1000011000101000001100111100010 +
b10 '
b10 ,
b10 6
b1000011000101000001100111100010 5
b1100101011011111000101001101100 4
0:
b1000001000001000000100001100000 9
#695000
1!
12
1#
b1000001000001000000100001100000 7
08
0)
b1000001000001000000100001100000 (
b1100101011011111000101001101100 -
b1000011000101000001100111100010 .
b10 /
b1000001000001000000100001100000 0
01
#700000
0!
02
0#
bx %
bx *
bx &
bx +
bx '
bx ,
bx 6
bx 5
bx 4
b0 9
1:
#705000
1!
12
1#
b0 7
18
1)
b0 (
bx -
bx .
bx /
b0 0
11
#710000
0!
02
0#
b1010100100110000011101100000 %
b1010100100110000011101100000 *
b1101011011011110001101001100011 &
b1101011011011110001101001100011 +
b0 '
b0 ,
b0 6
b1101011011011110001101001100011 5
b1010100100110000011101100000 4
0:
b1110110000000100010000111000011 9
#715000
1!
12
1#
b1110110000000100010000111000011 7
08
0)
b1110110000000100010000111000011 (
b1010100100110000011101100000 -
b1101011011011110001101001100011 .
b0 /
b1110110000000100010000111000011 0
01
#720000
0!
02
0#
bx %
bx *
bx &
bx +
bx '
bx ,
bx 6
bx 5
bx 4
b0 9
1:
#725000
1!
12
1#
b0 7
18
1)
b0 (
bx -
bx .
bx /
b0 0
11
#730000
0!
02
0#
b10000111111100101010100001000 %
b10000111111100101010100001000 *
b100110011000110111101110011101 &
b100110011000110111101110011101 +
b11 '
b11 ,
b11 6
b100110011000110111101110011101 5
b10000111111100101010100001000 4
0:
b110110111111110111111110011101 9
#735000
1!
12
1#
b110110111111110111111110011101 7
08
0)
b110110111111110111111110011101 (
b10000111111100101010100001000 -
b100110011000110111101110011101 .
b11 /
b110110111111110111111110011101 0
01
#740000
0!
02
0#
bx %
bx *
bx &
bx +
bx '
bx ,
bx 6
bx 5
bx 4
b0 9
1:
#745000
1!
12
1#
b0 7
18
1)
b0 (
bx -
bx .
bx /
b0 0
11
#750000
0!
02
0#
b1111000101100010111001101100110 %
b1111000101100010111001101100110 *
b100100100101010010010111101100 &
b100100100101010010010111101100 +
b110 '
b110 ,
b110 6
b100100100101010010010111101100 5
b1111000101100010111001101100110 4
0:
1:
#755000
1!
12
1#
b1111000101100010111001101100110 -
b100100100101010010010111101100 .
b110 /
#760000
0!
02
0#
bx %
bx *
bx &
bx +
bx '
bx ,
bx 6
bx 5
bx 4
0:
1:
#765000
1!
12
1#
bx -
bx .
bx /
#770000
0!
02
0#
b1000001101011000110001001111000 %
b1000001101011000110001001111000 *
b1101000110010101011000111000111 &
b1101000110010101011000111000111 +
b100 '
b100 ,
b100 6
b1101000110010101011000111000111 5
b1000001101011000110001001111000 4
0:
b101001011001101101001110111111 9
#775000
1!
12
1#
b101001011001101101001110111111 7
08
0)
b101001011001101101001110111111 (
b1000001101011000110001001111000 -
b1101000110010101011000111000111 .
b100 /
b101001011001101101001110111111 0
01
#780000
0!
02
0#
bx %
bx *
bx &
bx +
bx '
bx ,
bx 6
bx 5
bx 4
b0 9
1:
#785000
1!
12
1#
b0 7
18
1)
b0 (
bx -
bx .
bx /
b0 0
11
#790000
0!
02
0#
b1101011111011110010001001000000 %
b1101011111011110010001001000000 *
b11110000001111011000011010110111 &
b11110000001111011000011010110111 +
b10 '
b10 ,
b10 6
b11110000001111011000011010110111 5
b1101011111011110010001001000000 4
0:
b1100000001011010000001000000000 9
#795000
1!
12
1#
b1100000001011010000001000000000 7
08
0)
b1100000001011010000001000000000 (
b1101011111011110010001001000000 -
b11110000001111011000011010110111 .
b10 /
b1100000001011010000001000000000 0
01
#800000
0!
02
0#
bx %
bx *
bx &
bx +
bx '
bx ,
bx 6
bx 5
bx 4
b0 9
1:
#805000
1!
12
1#
b0 7
18
1)
b0 (
bx -
bx .
bx /
b0 0
11
#810000
0!
02
0#
b11110111011110011011001010111101 %
b11110111011110011011001010111101 *
b1100010100110111011000010001101 &
b1100010100110111011000010001101 +
b111 '
b111 ,
b111 6
b1100010100110111011000010001101 5
b11110111011110011011001010111101 4
0:
1:
#815000
1!
12
1#
b11110111011110011011001010111101 -
b1100010100110111011000010001101 .
b111 /
#820000
0!
02
0#
bx %
bx *
bx &
bx +
bx '
bx ,
bx 6
bx 5
bx 4
0:
1:
#825000
1!
12
1#
bx -
bx .
bx /
#830000
0!
02
0#
b11100100010011000001001111110000 %
b11100100010011000001001111110000 *
b11001011101000011010010001001011 &
b11001011101000011010010001001011 +
b11 '
b11 ,
b11 6
b11001011101000011010010001001011 5
b11100100010011000001001111110000 4
0:
b11101111111011011011011111111011 9
#835000
1!
12
1#
b11101111111011011011011111111011 7
08
0)
b11101111111011011011011111111011 (
b11100100010011000001001111110000 -
b11001011101000011010010001001011 .
b11 /
b11101111111011011011011111111011 0
01
#840000
0!
02
0#
bx %
bx *
bx &
bx +
bx '
bx ,
bx 6
bx 5
bx 4
b0 9
1:
#845000
1!
12
1#
b0 7
18
1)
b0 (
bx -
bx .
bx /
b0 0
11
#850000
0!
02
0#
b110010011001100100010111010111 %
b110010011001100100010111010111 *
b1111010101010110111100110010110 &
b1111010101010110111100110010110 +
b11 '
b11 ,
b11 6
b1111010101010110111100110010110 5
b110010011001100100010111010111 4
0:
b1111010111011110111110111010111 9
#855000
1!
12
1#
b1111010111011110111110111010111 7
08
0)
b1111010111011110111110111010111 (
b110010011001100100010111010111 -
b1111010101010110111100110010110 .
b11 /
b1111010111011110111110111010111 0
01
#860000
0!
02
0#
bx %
bx *
bx &
bx +
bx '
bx ,
bx 6
bx 5
bx 4
b0 9
1:
#865000
1!
12
1#
b0 7
18
1)
b0 (
bx -
bx .
bx /
b0 0
11
#870000
0!
02
0#
b11100001110010000100100001110100 %
b11100001110010000100100001110100 *
b10111001100010000001011100100001 &
b10111001100010000001011100100001 +
b100 '
b100 ,
b100 6
b10111001100010000001011100100001 5
b11100001110010000100100001110100 4
0:
b1011000010000000101111101010101 9
#875000
1!
12
1#
b1011000010000000101111101010101 7
08
0)
b1011000010000000101111101010101 (
b11100001110010000100100001110100 -
b10111001100010000001011100100001 .
b100 /
b1011000010000000101111101010101 0
01
#880000
0!
02
0#
bx %
bx *
bx &
bx +
bx '
bx ,
bx 6
bx 5
bx 4
b0 9
1:
#885000
1!
12
1#
b0 7
18
1)
b0 (
bx -
bx .
bx /
b0 0
11
#890000
0!
02
0#
b11110010011100100001101111000110 %
b11110010011100100001101111000110 *
b10010110101110101000101001100111 &
b10010110101110101000101001100111 +
b10 '
b10 ,
b10 6
b10010110101110101000101001100111 5
b11110010011100100001101111000110 4
0:
b10010010001100100000101001000110 9
#895000
1!
12
1#
b10010010001100100000101001000110 7
08
0)
b10010010001100100000101001000110 (
b11110010011100100001101111000110 -
b10010110101110101000101001100111 .
b10 /
b10010010001100100000101001000110 0
01
#900000
0!
02
0#
bx %
bx *
bx &
bx +
bx '
bx ,
bx 6
bx 5
bx 4
b0 9
1:
